Ored||Hala100
70100003184918||3369 54517 8967 
70100003184919||4977 17444 4088 
70100003184920||7488 38569 9603 
70100003184921||2915 62498 2603 
70100003184922||9126 86648 9811 
70100003184923||6601 96317 8902 
70100003184924||5075 06635 2132 
70100003184925||3029 44469 9983 
70100003184926||4977 12499 1700 
70100003184927||9030 92896 8445 
70100003184928||4546 34317 4275 
70100003184929||9564 33252 6064 
70100003184930||3231 81069 9967 
70100003184931||5364 33269 9010 
70100003184932||5800 22325 5685 
70100003184933||8126 65017 9845 
70100003184934||8664 18751 5689 
70100003184935||4658 74705 7830 
70100003184936||3781 72249 7891 
70100003184937||2690 35865 0483 
70100003184938||6429 54586 6629 
70100003184939||8497 66298 2902 
70100003184940||1887 73105 8957 
70100003184941||8664 15274 7675 
70100003184942||9564 48815 2536 
70100003184943||5685 09807 7829 
70100003184944||7788 67673 1132 
70100003184945||6321 66876 6233 
70100003184946||4282 08983 4036 
70100003184947||5685 29966 8818 
70100003184948||0112 46535 5891 
70100003184949||5896 49633 5064 
70100003184950||4977 31517 9226 
70100003184951||3029 36554 5818 
70100003184952||7658 41805 7483 
70100003184953||5600 54366 8504 
70100003184954||7658 49774 7177 
70100003184955||4546 72146 3176 
70100003184956||0523 34199 1913 
70100003184957||4546 74930 6516 
70100003184958||2690 86554 5726 
70100003184959||8324 66847 6902 
70100003184960||3960 63126 0258 
70100003184961||5800 29917 4132 
70100003184962||8237 31549 0381 
70100003184963||4072 67865 0040 
70100003184964||6823 48949 7956 
70100003184965||4977 30696 8726 
70100003184966||4658 47667 2047 
70100003184967||7788 39435 5723 
70100003184968||6077 21723 1620 
70100003184969||9404 52651 2830 
70100003184970||2082 39433 5957 
70100003184971||1887 81012 4380 
70100003184972||2190 66235 2535 
70100003184973||6321 73139 4184 
70100003184974||0220 33017 8845 
70100003184975||9341 08969 9381 
70100003184976||9341 67892 0840 
70100003184977||6221 90907 7689 

