Ored||DR500MB
70000190451160||8321 98060 6344 
70000190451161||2857 67009 5254 
70000190451162||5122 52779 6806 
70000190451163||2685 60450 6134 
70000190451164||1318 82745 9656 
70000190451165||4434 10618 9024 
70000190451166||0746 10184 3024 
70000190451167||0573 86464 0800 
70000190451168||7864 74323 7434 
70000190451169||2473 97619 4466 
70000190451170||5553 24735 1741 
70000190451171||7538 26943 1838 
70000190451172||5712 02501 3776 
70000190451173||1443 19345 6558 
70000190451174||1835 04683 2017 
70000190451175||2685 58553 9254 
70000190451176||6369 75727 0646 
70000190451177||9078 60577 2093 
70000190451178||0565 75759 2004 
70000190451179||5712 30109 5344 
70000190451180||4434 60423 7354 
70000190451181||2830 29069 3408 
70000190451182||7790 12241 2170 
70000190451183||3075 83361 0558 
70000190451184||6877 99927 4138 
70000190451185||8230 12273 6555 
70000190451186||5595 36885 0017 
70000190451187||9690 19728 5880 
70000190451188||3752 64982 2042 
70000190451189||1079 07949 8639 
70000190451190||5521 44364 2386 
70000190451191||0555 82714 6576 
70000190451192||4779 41585 3646 
70000190451193||4395 06224 4019 
70000190451194||8417 74677 2048 
70000190451195||2119 46969 3656 
70000190451196||6877 45886 3413 
70000190451197||3487 20933 7116 
70000190451198||1597 83926 4970 
70000190451199||2702 78673 6232 
70000190451200||8815 96963 8430 
70000190451201||8102 86433 7322 
70000190451202||7884 47563 8466 
70000190451203||1835 22764 2780 
70000190451204||7884 47714 6042 
70000190451205||9684 59964 2281 
70000190451206||3487 40079 6712 
70000190451207||0555 06249 5408 
70000190451208||2678 82187 9884 
70000190451209||5122 33886 3574 
70000190451210||1835 75757 2073 
70000190451211||2645 91439 7579 
70000190451212||3075 97249 8430 
70000190451213||2145 92656 4393 
70000190451214||7251 10864 0686 
70000190451215||0027 91485 6579 
70000190451216||3857 34645 5430 
70000190451217||1079 05021 5800 
70000190451218||7538 02076 7399 
70000190451219||8164 47826 3257 
70000190451220||9690 40041 2386 
70000190451221||2145 33327 0574 
70000190451222||7350 90764 1558 
70000190451223||1597 84183 7523 
70000190451224||4779 95355 9017 
70000190451225||4361 97220 2192 
70000190451226||5595 99410 0042 
70000190451227||6649 41641 4524 
70000190451228||1443 67021 4646 
70000190451229||7263 82132 1815 
70000190451230||2830 59679 6820 
70000190451231||1350 67064 1576 
70000190451232||2517 64918 9055 
70000190451233||2382 44353 9978 
70000190451234||1708 90742 7447 
70000190451235||3487 78669 3858 
70000190451236||5595 30139 7954 
70000190451237||2830 58579 6170 
70000190451238||0555 00227 4806 
70000190451239||3309 13759 2815 
70000190451240||0583 71609 2048 
70000190451241||5712 41610 0430 
70000190451242||0583 97220 2004 
70000190451243||3152 68316 2024 
70000190451244||4860 80208 2430 
70000190451245||1318 16014 1138 
70000190451246||1835 83338 3858 
70000190451247||9704 82743 1778 
70000190451248||4860 56888 3408 
70000190451249||2702 58580 5954 
70000190451250||1708 02589 9988 
70000190451251||1318 00250 9988 
70000190451252||7538 06255 9838 
70000190451253||7350 86410 0576 
70000190451254||8230 67045 6573 
70000190451255||5712 23814 1116 
70000190451256||5595 97287 9019 
70000190451257||7864 65516 7664 
70000190451258||4609 74641 2042 
70000190451259||5521 45824 4354 
70000190451260||9684 10361 0432 
70000190451261||9078 05077 2709 
70000190451262||6649 82445 9579 
70000190451263||3857 12783 2576 
70000190451264||1350 44983 2042 
70000190451265||2830 24701 3563 
70000190451266||1643 44942 7987 
70000190451267||1708 98063 3019 
70000190451268||7263 74645 5646 
70000190451269||8230 44683 7686 
70000190451270||1350 36110 9664 
70000190451271||6369 10686 3024 
70000190451272||0127 02585 6322 
70000190451273||1996 00205 4709 
70000190451274||9078 95361 0987 
70000190451275||8102 00943 1026 
70000190451276||2857 46909 5712 
70000190451277||3152 99464 0283 
70000190451278||1079 40075 8024 
70000190451279||6649 07155 9803 
70000190451280||1708 67150 9408 
70000190457531||3463 06242 7322 
70000190457532||5699 69745 6432 
70000190457533||5699 64950 6053 
70000190457534||2804 19323 7322 
70000190457535||8966 47770 4408 
70000190457536||9191 68384 7780 
70000190457537||4376 82742 7432 
70000190457538||3410 68360 6970 
70000190457539||2723 05088 6680 
70000190457540||0812 44908 2016 
70000190457541||4987 82192 3884 
70000190457542||6845 33388 6573 
70000190457543||1811 44638 3523 
70000190457544||7232 82408 1430 
70000190457545||9894 31341 4481 
70000190457546||6708 16064 0004 
70000190457547||7148 98053 9540 
70000190457548||8814 45126 3664 
70000190457549||6071 45182 2563 
70000190457550||9045 36827 4073 
70000190457551||7252 96987 9646 
70000190457552||0147 44383 7917 
70000190457553||9460 74635 1175 
70000190457554||2818 74685 6093 
70000190457555||1376 07921 4954 
70000190457556||8966 67143 1065 
70000190457557||6708 53350 9116 
70000190457558||7232 45842 7686 
70000190457559||6463 79118 9048 

