Ored||Hala200
70200000618517||0835 18053 1358 
70200000618518||5735 85840 2166 
70200000618519||0938 32271 1418 
70200000618520||0835 05393 3174 
70200000618521||0958 95434 2171 
70200000618522||0191 82064 3909 
70200000618523||1926 46611 8149 
70200000618524||8296 04258 8724 
70200000618525||4315 01934 5341 
70200000618526||0398 35440 2204 

