VF||VFInternational10
0000016080-06646||xl6CkHEx85Fems1PIB78Tg==||21022020
0000016080-06647||3Q5Zl0D8f+GLMq45LlaiNg==||21022020
0000016080-06648||080k4p/B9K4v5C7z3uUH5Q==||21022020
0000016080-06649||BLCF7XmYRcqJox95d5ddaw==||21022020
0000016080-06650||TivdsK2nRQAOeey2eQGCDg==||21022020
0000016080-06651||kZyHwOZBFdkRPTj5xAnwnw==||21022020
0000016080-06652||rPJ+lJLaH7/8rJWtN0IxYA==||21022020
0000016080-06653||wwSwY083E13S8l9trtpH5A==||21022020
0000016080-06654||SDGE+s7MVEUUGfNbWkSs9w==||21022020
0000016080-06655||6x00rAP/GKyGnIodktQxDA==||21022020
0000016080-06656||1qq1Za/AVbAT3H4AIfcaJA==||21022020
0000016080-06657||EP1W8qJuHpSTISwmhTpIlA==||21022020
0000016080-06658||a8wTgHJ/LaYowtM2zClddg==||21022020
0000016080-06659||SJV0E+5VjLcP1l7+rnONHw==||21022020
0000016080-06660||jqKRYB5bpXnd3JqOXU/3Rg==||21022020
0000016080-06661||0Zo4lFyJRPQLDn1jpG0Bdw==||21022020
0000016080-06662||wPdgV11OiI9lg2T2Y+e1IA==||21022020
0000016080-06663||mwRAZafy6l0r0lmwy/mAIA==||21022020
0000016080-06664||5NT43li/4W8cgvoo3XV0jA==||21022020
0000016080-06665||aB4+xuUmpBTLLIhSTE9lCw==||21022020
0000016080-06666||KHxOr6yCWP6jvchVUwjlWg==||21022020
0000016080-06667||S22rEfOSMdP4D1uKTo4j7w==||21022020
0000016080-06668||jY1VHD9SRdsMxpT3Ng+tNw==||21022020
0000016080-06669||YahYDx4OltTukyhioSqjqg==||21022020
0000016080-06670||ecu12mNRLJ0QnQyiGfQAsg==||21022020
0000016080-06671||3uysgaP0AwEfDzb1eM9JxA==||21022020
0000016080-06672||3kEVa3ka2ticsUXk2UQDWA==||21022020
0000016080-06673||1BHqRi+/8of/nP1CcjJw6A==||21022020
0000016080-06674||/eRkXluR8LIoC6QtKCH/LA==||21022020
0000016080-06675||Li+kcIzF3Y8YNBF1REX15g==||21022020
0000016080-06676||HqtVU/YFqDVGiqnHAbtb+A==||21022020
0000016080-06677||SBjweZJPJgFkWsI7AL7vuQ==||21022020
0000016080-06678||6SpKYzw4HaVYze9Z4WdWRw==||21022020
0000016080-06679||8rjBGwQ07Py/iQwtt+9nNQ==||21022020
0000016080-06680||wo+Ebs2eOOPvzCaWv1yJZg==||21022020
0000016080-06681||vK3s7Wwpfrlx+bxK5t5S3w==||21022020
0000016080-06682||1xmHprZMOsVOV0SOKJ2PFQ==||21022020
0000016080-06683||qFZhGPaZ0BRSDx+Wn5nRMA==||21022020
0000016080-06684||25DM0YPuQMK8i5lxw2JPfA==||21022020
0000016080-06685||ZzX313MGcU3N8ZYA0hm3yA==||21022020
0000016080-06686||1D7yQu7vfBvgyP9OrB0X5w==||21022020
0000016080-06687||zU+iau3+AAd8kAuy0wFUqQ==||21022020
0000016080-06688||AQLNAcG0Kz5h8BuKzvzOZg==||21022020
0000016080-06689||4mfrEMnxf9D9mx9yLoAHYg==||21022020
0000016080-06690||3lFh4XaPTqAJU93CcEMkIg==||21022020
0000016080-06691||t8ERWrWpzd0022YEO4GRFA==||21022020
0000016080-06692||L9vVtOvDm81vPTtalLdbhA==||21022020
0000016080-06693||yqkfmk4+3n+de/l0e4TySw==||21022020
0000016080-06694||kseacD6LVlCkoBiDIOVaQA==||21022020
0000016080-06695||xXS2cIH+y64uPDtK/9U12A==||21022020
0000016080-06696||Y4l0pkXLDKc4toKgAdRZog==||21022020
0000016080-06697||xusSli699ubyzA6bdL99Nw==||21022020
0000016080-06698||ljmFeX0LasyOeSkJ/kVtmg==||21022020
0000016080-06699||5uK2aVe1EMOitFuxemRHnQ==||21022020
0000016080-06700||a7WoCSuL5sTUACR40M65UQ==||21022020
0000016080-06701||ScdTRuFsWn0dn94VeXnvtw==||21022020
0000016080-06702||fKTCaLEZ6ZDp8YeD+lHloA==||21022020
0000016080-06703||+jyxd6uhjDc0Sk16+SkvUA==||21022020
0000016080-06704||SHkQkTZG8n0D684LpiYR9g==||21022020
0000016080-06705||5YD9n0umqfIMxpT3Ng+tNw==||21022020
0000016080-06706||nphpv3AdHsShO9XiQJ3BJg==||21022020
0000016080-06707||Dx60FzcLbpWWl33N9ZpQyw==||21022020
0000016080-06708||oVY3gtD8pijS9hFEuZrHMg==||21022020
0000016080-06709||j75MV4ELfCEU91M2xLdRWQ==||21022020
0000016080-06710||Evh75bZhwWmFups6NDpQ6A==||21022020
0000016080-06711||Y/EKi9L7ldLSyGFe45ydzw==||21022020
0000016080-06712||g5HCndD3c9QM3guwcRoS6Q==||21022020
0000016080-06713||Lar+DLF9YwaOWan+V9jBCw==||21022020
0000016080-06714||HedvKCSYJ5BarG1dvcuTgw==||21022020
0000016080-06715||x97f6FFH2NtiiFfgZlp5/A==||21022020
0000016080-06716||B0fmIxGIljV/xuLzRGZ1lA==||21022020
0000016080-06717||+DJnPOHT7vheLkSn6U5QLg==||21022020
0000016080-06718||iqL32Qz3tVzWjHy4xc99VQ==||21022020
0000016080-06719||fFsBq8s2/muBnuB7ptabTg==||21022020
0000016080-06720||Qu/hzCJ2u0flSdFnlQCqWg==||21022020
0000016080-06721||LAM8Hqmzmtqg4MfYxeK30w==||21022020
0000016080-06722||KxDhgN3pbXKL4KaN+dFQVw==||21022020
0000016080-06723||GFQU2j3fUl0PYJwn4yUZRQ==||21022020
0000016080-06724||em778G/LTYSMGx6EJqoiEA==||21022020
0000016080-06725||EDfAuXnx/xtGmxJp8IJKrQ==||21022020
0000016080-06727||0EnedQBAjZRkD+UIDWExyg==||21022020
0000016080-06728||J1reLNLc1UcmBcD1zrOObA==||21022020
0000016080-06729||B8uv6OrWnIeWk7nGRoBU1Q==||21022020
0000016080-06730||Ps2sBX4XiRJIqu/bcqrbJQ==||21022020
0000016080-06731||l96WK05wjqgNdlEREIyAuA==||21022020
0000016080-06732||b9S/LwMQWEfDlYDJwDcDOw==||21022020
0000016080-06733||V0Jn8Z53DQxrpJUwYaSttg==||21022020
0000016080-06734||1n9lbPFBNQJIa5TWyX4tpw==||21022020
0000016080-06735||t3xUEfzv4FcR9eJC27dRGA==||21022020
0000016080-06736||DkNvrvJyyKDmqWpT1VnJyg==||21022020
0000016080-06737||xGgGznwGexGiwZbg1ave3Q==||21022020
0000016080-06738||QNMwSnEhgQmgKQtEOw/X8g==||21022020
0000016080-06739||lyIkceZmu1oz0i7yuwgb9w==||21022020
0000016080-06740||F1sz61ZbdMclCnFjqZe3tA==||21022020
0000016080-06741||tuvo2RiVwceaC9VKU+RfQA==||21022020
0000016080-06742||AQaO563rh9e1FJw0XpLi0w==||21022020
0000016080-06743||VPQgjnbJDh4MF3h09v1SOg==||21022020
0000016080-06744||ROjs/Q7J7bkcPqA+1mFGqg==||21022020
0000016080-06745||EWBkSey4onNFcNUaXYPs6w==||21022020
0000016080-06746||SU3j95qNRquLXpcQeDuf6w==||21022020
0000016080-06747||JaWn4zcYX2pJ5y+WUsKpYg==||21022020
0000016080-06748||MszsDecCL3omFcxraLvxWQ==||21022020
0000016080-06749||i5KefhMD8BZj4eFW3DP87Q==||21022020
0000016080-06750||oyMJd29SW+O66wmLzLsKSg==||21022020
0000016080-06751||jZ4PNj1BGs67vkJrEGHcTw==||21022020
0000016080-06752||meXG9kq6XjEO8iFvx129TQ==||21022020
0000016080-06753||At5LwoK43L0n5/9yeUHdyQ==||21022020
0000016080-06754||4Sb2sPLGd6FeZg/TFq8bZw==||21022020
0000016080-06755||WXUJhl6QYmUo9wZYpVV1tQ==||21022020
0000016080-06756||naHP+JnPc0RlHo2DYcrSEw==||21022020
0000016080-06757||V/1UFkZyQMAseq5NO9FCtw==||21022020
0000016080-06758||2rvR9NPxE/A+9Q1v66reHQ==||21022020
0000016080-06759||gBPspi/7vMjh4cQZPTm6NQ==||21022020
0000016080-06760||hISRGKsYGhXfOjAAFQidHA==||21022020
0000016080-06761||/uR0uJqmRtn0oSe690MZPw==||21022020
0000016080-06762||KJTFN7BJ0zW1Knm5XxBFqg==||21022020
0000016080-06763||uCscrXgzQ8qpNmAeHMWcKA==||21022020
0000016080-06764||4ltwv5PuqDEzv8eKma9E8w==||21022020
0000016080-06765||2XH2jk3W55pHOc5PUUOC+w==||21022020
0000016080-06766||VY9TsQsctMJzLuXfEMoClA==||21022020
0000016080-06767||67vJqaeOYoGbd/rBeURbwg==||21022020
0000016080-06768||1BJdK64NiPKFKBwwNg6VIg==||21022020
0000016080-06769||NekgBdkfZ3D9C5zP/dlcbA==||21022020
0000016080-06770||wPjjLYn+9Ep6RKGfIsGIwg==||21022020
0000016080-06771||Z7CpJnltgV3O6LVa9ekqsQ==||21022020
0000016080-06772||GBtizBMbGDFHt4WOGmgF4A==||21022020
0000016080-06773||YYmUCS/JtLLViMMC1D5sTg==||21022020
0000016080-06774||cR9UfAJvQBFwQjKw1RFLVg==||21022020
0000016080-06775||qD6Ttj5YXO3dg9mXuNBIQw==||21022020
0000016080-06776||o/P8HoRbMG08PBUp5edFWw==||21022020
0000016080-06777||EdGfS+8qzzYEuVDVeQURFg==||21022020
0000016080-06778||BCsdObf4+y8aHojO4SOANw==||21022020
0000016080-06779||Oj4U5ETCIzXtyzeRaXsU+A==||21022020
0000016080-06780||61zr1Yt58n7shDaaivk0gQ==||21022020
0000016080-06781||irk3JMyFIBPQjLMYSGPe0Q==||21022020
0000016080-06782||0AQPmQx586nM0stpzj18Xw==||21022020
0000016080-06783||ApxNNOlTkjI3zfZdaOVEfg==||21022020
0000016080-06784||GeqtHUZSQGIkp5WsN20c2g==||21022020
0000016080-06785||YlmsrxTXdbF+XS68ipoZEw==||21022020
0000016080-06786||5Hxt0Y1/wm4EqollUsQxPw==||21022020
0000016080-06787||KcNitFeMGppW3ibLQXG+mw==||21022020
0000016080-06788||vhHBKVYli8aXOEJxjbhY6w==||21022020
0000016080-06789||ubOSLqF1A1XJk3WuueK8zA==||21022020
0000016080-06790||Z2L8WBjHrSJfzer/5JU4zg==||21022020
0000016080-06791||A83FuRM7xyyQWZYemKjQNg==||21022020
0000016080-06792||GgqzL1xtY1QkKntMC65ubA==||21022020
0000016080-06793||Hb3EXx4UOvYpXArEFSS1TA==||21022020
0000016080-06794||eiTN2yvkrI5M4CUfO/colQ==||21022020
0000016080-06795||sSrV5QAiZujZPA7ZlmMtbA==||21022020
0000016080-06796||KPz7r5gW1LmRKip8PdT3sg==||21022020
0000016080-06797||MQcUg3H4vfCy3ICGxlwy2A==||21022020
0000016080-06798||6jw/OqQVG57V9QWACez+Wg==||21022020
0000016080-06799||AlX7teozVoL5PYl2ZGH93g==||21022020
0000016080-06800||ozpu6WEJSNXIN8EqQhwxLg==||21022020
0000016080-06801||D8zygl/44ZhP3zMACJiqTA==||21022020
0000016080-06802||f68Ba5i7euIajVrhU7aKAg==||21022020
0000016080-06803||8PKGIChZGMEB5mBfWSTP/A==||21022020
0000016080-06804||Q5aba/W4TxIKimzqQjyQQQ==||21022020
0000016080-06805||s+jwGh5XrjR/PAmM3PlElw==||21022020
0000016080-06806||S3yt0YNXTpuHUAoMmWc3bA==||21022020
0000016080-06807||jS4x5adGLWdDSMfmDMNNzQ==||21022020
0000016080-06808||v/YkJJPnd8fhtQelFBn2EQ==||21022020
0000016080-06809||OSUdjbmNy4SjncTdZFrC9w==||21022020
0000016080-06810||gjqlxky0XUrnFebcWEUgkQ==||21022020
0000016080-06811||W7664BFU5pBLRXa/U05ndA==||21022020
0000016080-06812||sY+v/HLHPldyalooXND8gg==||21022020
0000016080-06813||x5dWBhoDGMqbV6x2p4SxHQ==||21022020
0000016080-06814||B8Pzictv92xOUE+FoWYWIA==||21022020
0000016080-06815||aPK0g59oEgr+PhYXz97bWw==||21022020
0000016080-06816||u+R1AZEPiHA4lYv6MqYHng==||21022020
0000016080-06817||BHuftOSbk/Y1BFvsHgrHDg==||21022020
0000016080-06818||tJ4jKk81rV18/f3SVffhww==||21022020
0000016080-06819||i5SCOiyAxfR1Km/PsiFH7Q==||21022020
0000016080-06820||GjZKPJ5WNmLslEG/qcZEeQ==||21022020
0000016080-06821||KehnpM8fTeA66agUg2n2Bw==||21022020
0000016080-06822||Y3nGfwnU2flems1PIB78Tg==||21022020
0000016080-06823||NmV8e8jXWfZ108pVRC4IFg==||21022020
0000016080-06824||O6JJESMhb4TBMNNsaxIEGA==||21022020
0000016080-06825||PiYJmnViSbbXD0Mr8/nc7A==||21022020
0000016080-06826||RZ35sylhEFE9dUdzTAqyBg==||21022020
0000016080-06827||yHQc0SRcTI0l3pWLMrAYDQ==||21022020
0000016080-06828||m1iBOJEBfP4D3VhVXxrXdA==||21022020
0000016080-06829||v89Fh5+0pKr5HgKFyWEseQ==||21022020
0000016080-06830||AunE0TXXF5EJCSewwe31VA==||21022020
0000016080-06831||TLu4vdhZfw85JFhepTAdxA==||21022020
0000016080-06832||B3r5sh5jD/kRqvptilsLBA==||21022020
0000016080-06833||p0IzxhEy/pvJtmJA3LLnXA==||21022020
0000016080-06834||gXzagD8AxmmuQOZo+UELCQ==||21022020
0000016080-06835||9QTqp3xCTlWHy5VfHgi57w==||21022020
0000016080-06836||WDtO3VUAShV+KsLaZ3ADFQ==||21022020
0000016080-06837||L78RS6cLSD3fM3VcSLTEQQ==||21022020
0000016080-06838||RlZZzYMKwOtbqI/mjXLCgg==||21022020
0000016080-06839||gOInQ2yGZZTcLzYD5762yQ==||21022020
0000016080-06840||pouyd95M7B6s632hJ5R7Xg==||21022020
0000016080-06841||kVPUzdLT/R4DYziyhTzyHA==||21022020
0000016080-06842||cxgNK120OCR52z6XUtWbAg==||21022020
0000016080-06843||gmiW8yEOnwpdVsjl99PwsA==||21022020
0000016080-06844||mRYNLPx+VxUNm9/ZS4zbGw==||21022020
0000016080-06845||Lbo0bvN78PxZj2+oYmQtvA==||21022020
0000016080-06846||9CwXIkB0F8TmXloU/ONZQQ==||21022020
0000016080-06847||d/TYtF89gFRtyJpK/Ua1Kg==||21022020
0000016080-06848||7KZOjYEQiHMT0kRKeZJblA==||21022020
0000016080-06849||qT5lehmjDeO9+t3voJMC6Q==||21022020
0000016080-06850||fzPKKkXS1I1BXR8NqFAw0A==||21022020
0000016080-06851||h+eg17nngioRXVBfVtmC+A==||21022020
0000016080-06852||cSp1pqcRzwxjuKV/4r10Dw==||21022020
0000016080-07031||AROdOZcvayG9tiS9dGLLiw==||21022020
0000016080-07032||4cr6Mlo9OZ1q5UeeVDqj5Q==||21022020
0000016080-07033||x18WMNLbacRjScHHYaNujg==||21022020
0000016080-07034||tWf5ZNa6HoE1grrbW/wDXw==||21022020
0000016080-07035||RcofIARGhh4fwYCkOeCxlw==||21022020
0000016080-07036||r6ujeY6l4mVMLRSno9LiYg==||21022020
0000016080-07037||FifH2yU8fCPnSsXU3vJzNQ==||21022020
0000016080-07038||/IpYwymhq+vv+h8jXZ5/7A==||21022020
0000016080-07039||6MqP7AWDsVx9RhESbaaqnQ==||21022020
0000016080-07040||dANqi6W4Lv0mYWPzXTh2HA==||21022020
0000016080-07041||1IXTMQgMWaLS9hFEuZrHMg==||21022020
0000016080-07042||Go4mOfivOnE6VyctMXxAag==||21022020
0000016080-07043||6MUZeuI/1CPfszywUwwS3Q==||21022020
0000016080-07044||7JccgArA34+KJAAL2j5+1g==||21022020
0000016080-07045||nVXq0YPKRi+NtAdTZKY5zw==||21022020
0000016080-07046||+WTnW0VJxhic2vzITpvqiQ==||21022020
0000016080-07047||VNx5Y/PvvE2KNA5jvxy5MQ==||21022020
0000016080-07048||RdBEdv1VQJfXhKTRc/nMBw==||21022020
0000016080-07049||cRxteQ8kFJckp5WsN20c2g==||21022020
0000016080-07050||RlSpHUvVgh6rc0GMW2QcBw==||21022020
0000016080-07051||QzY+EGVdP83RQONc0jCZwA==||21022020
0000016080-07052||3bQ/TxGm0sTIT9g2fYASZA==||21022020
0000016080-07053||eoNpwjBSToKitFuxemRHnQ==||21022020
0000016080-07054||SnTosJ8wEk5Mqp6bbGaY4g==||21022020
0000016080-07055||xEQAReFIK0SOd+/Qgs5BLg==||21022020
0000016080-07056||n+GVBvnSjrDDbKOwDAsbtQ==||21022020
0000016080-07057||oWofBjIx3gR3lKp84nNexw==||21022020
0000016080-07058||+UyOk4K347+bqtTvK0CXqg==||21022020
0000016080-07059||Bbe6fIAKqzO9tiS9dGLLiw==||21022020
0000016080-07060||uhH1TA/9TW8ftea/so+DLA==||21022020
0000016080-07061||lSD1Nf/aArnMyeRb87TNzg==||21022020
0000016080-07062||nQKKbQhdB8dSo6f3sOx3Gw==||21022020
0000016080-07063||FaWO7K4H/iM4gH1IhH+Xew==||21022020
0000016080-07064||hKJn6zYCM+r/jI8vgbZcAQ==||21022020
0000016080-07065||Rbw/UZr9xILbT9yL10DXDw==||21022020
0000016080-07066||JzadYnz8GLaDoLhwy6El/w==||21022020
0000016080-07067||G3/F5iF2y6tzZ+q2wExH2Q==||21022020
0000016080-07068||R9EWmHU5lQDQ6viFepWRbw==||21022020
0000016080-07069||S0geNyTZ44t5+y2os4XHIw==||21022020
0000016080-07070||xftNHud+J3Neqdu7FCvM7Q==||21022020
0000016080-07071||MDlCDTtKdOcD0LNU4kqirw==||21022020
0000016080-07072||7a1qtiG8IKWdEUFmRKSXGg==||21022020
0000016080-07073||eYSCMhKvqC1TYChEYrek5g==||21022020
0000016080-07074||NCeREf5uyT57srCUKc12pQ==||21022020
0000016080-07075||yfn2ZxfUng5Kjeyy/n7ITg==||21022020
0000016080-07076||9UIk+B59aFR38AnsCGDyhw==||21022020
0000016080-07077||YlR1a2tT4TQmbiYL2FDY1w==||21022020
0000016080-07078||Klzr8b9qvq2sY707FmXdPQ==||21022020
0000016080-07079||V6LmQkhmfPprrtbx5PhayA==||21022020
0000016080-07080||BUoWigEsMpSnNmCxxRg+Kw==||21022020
0000016080-07081||PbyPrPicGMn8DQZiKTKH4Q==||21022020
0000016080-07082||v5GdV683jjed6rfA6/eotA==||21022020
0000016080-07083||chuYUUreoeVEWz437hibBQ==||21022020
0000016080-07084||dUKquudWw9zCs+7j6fAjkA==||21022020
0000016080-07085||qSWoRxwa6ISsKnJZvqibFQ==||21022020
0000016080-07086||mpQyUicr+68d1/eQ6fkdWw==||21022020
0000016080-07087||OcmXic3lYX1PYgMvYuYuoQ==||21022020
0000016080-07088||nUPv6uy5UP/tl3+PRxS85A==||21022020
0000016080-07089||V9kRwyglrFOHYGzRggnJsQ==||21022020
0000016080-07090||zwQ3rUz0c8rNpsNSYgfktw==||21022020
0000016080-07091||Vi0QuuZ4NMup6jvDpfq/ug==||21022020
0000016080-07092||HKvKqSeS1Zn2E72yFiqDgg==||21022020
0000016080-07093||OBb5OFSrjDHGLrSRgp/JuA==||21022020
0000016080-07094||yc2BIUVLAvBclrjjPIUfJQ==||21022020
0000016080-07095||43hfY/VjsnAXels0KWWqhA==||21022020
0000016080-07096||gCTW6/49T8RAgczJGG6orQ==||21022020
0000016080-07097||GCQa+NbHX+51SN/Bt8aLBw==||21022020
0000016080-07098||4bqqcEV0n0JP1vKb/zg9rQ==||21022020
0000016080-07099||hUpnEEaBewtFhMXMpiQP7Q==||21022020
0000016080-07100||SCnSs9lG64E8w+T/6E2t0w==||21022020
0000016080-07101||7GejgxkWbtphs2HfRDV29w==||21022020
0000016080-07102||2rhqYawQ3jRxsHvul+k9vw==||21022020
0000016080-07103||re/WZKf+fKR+KsLaZ3ADFQ==||21022020
0000016080-07104||XnWYI0sikGd1vJ+cugwrUg==||21022020
0000016080-07105||3bvDYEynjb9NbFhIIpWqtw==||21022020
0000016080-07106||3ycfhkL1qaa6AmU6yjGd3w==||21022020
0000016080-07107||u1xCDPLe+j4iXPa2olFAvA==||21022020
0000016080-07108||b8IdzgYpZQPimPTJ9oPmbw==||21022020
0000016080-07109||wfVwYeYnwSmXwTyhqLQWzg==||21022020
0000016080-07110||U2HzOSjtlGJA59tde+GBdw==||21022020
0000016080-07111||/dgqGUDxqZ0k5IQRtAF+eA==||21022020
0000016080-07112||axp6vlf14LZSVs+2+3sdRg==||21022020
0000016080-07113||WEHE+k3c6AUhiCYm4LQo2A==||21022020
0000016080-07114||dCcj3wZ9+B/KrGDGEdEGGg==||21022020
0000016080-07115||Jdm+fD5uyfsZwhdqaNqGtg==||21022020
0000016080-07116||CRTudj5RdZAgOzSClIFyvg==||21022020
0000016080-07117||/GhxLYyo28u4gWZfIY6GUQ==||21022020
0000016080-07118||soY88sLCJd5iCu2Wbw6lMg==||21022020
0000016080-07119||T4nThPonjIHS2vpjMo1hmg==||21022020
0000016080-07120||V9FJwRbKwd9d/lIvW0EZxg==||21022020
0000016080-07121||EyuxuBISO04JRXIi6eHCiA==||21022020
0000016080-07122||R4kBQ8fbVY7pTmaNEdPE3Q==||21022020
0000016080-07123||X6a4ud6V1pMLB3Y3D3ejYQ==||21022020
0000016080-07124||K6aCd5QFCl+SLMVxCtSDEw==||21022020
0000016080-07125||E5vNnZ+KgS1hO4jKCKhXCQ==||21022020
0000016080-07126||odFDDD7QfXCgRKiFbJ6oIQ==||21022020
0000016080-07127||6QJcHLndl7N26VMkpWVb5g==||21022020
0000016080-07128||KcoGjmSdlVM3HTxneiLwlg==||21022020
0000016080-07129||I7kt0HFzArQ4U4+DpgS9SA==||21022020
0000016080-07130||XtdHJJnwjTwMD9qTjH63KQ==||21022020
0000016080-07131||AXSgU0sAWWbHaKIgxPCEEQ==||21022020
0000016080-07132||x/noavX1PHFWDvpVweNpxw==||21022020
0000016080-07133||eFdCFR0/9uff4LNei+1xbQ==||21022020
0000016080-07134||TK2k+ZLpIv3UACR40M65UQ==||21022020
0000016080-07135||ObzTQJ3EYJbeRnvljXPBkQ==||21022020
0000016080-07136||Kgs7mb4bRPY99IUHgb3+Kw==||21022020
0000016080-07137||tm1bMFjGYKUm2ZuzqMJUPw==||21022020
0000016080-07138||XaWVP5wZpLVXagk7ijm7Sg==||21022020
0000016080-07139||Gt60kUVd8ka61JHdiI2Pxg==||21022020
0000016080-07140||bnRNtqSzgVfsjEhGWtEBWA==||21022020
0000016080-07141||o2iqk0bcRD3d3JqOXU/3Rg==||21022020
0000016080-07142||Xy3X3cDAefuvqKOtfX4uaw==||21022020
0000016080-07143||gdr9sJfLE7OP7bkvgUCnKA==||21022020
0000016080-07144||dd9vWnhStlWPIFErXCDsJQ==||21022020
0000016080-07145||9edCAPpmvcXNCt2i2xLFCQ==||21022020
0000016080-07146||puR8VwsLsB/ukyhioSqjqg==||21022020
0000016080-07147||vu0MQnwgMp2Rrf0+HbxStA==||21022020
0000016080-07148||or4eDWa2C8miQ8Uzc+l3Zg==||21022020
0000016080-07149||WIpzIQWiYzrpIDAS/HnMkw==||21022020
0000016080-07150||fmUTzQfamEIMBhGx24F8ZA==||21022020
0000016080-07151||giKSuSUzTGy66wmLzLsKSg==||21022020
0000016080-07152||tukjlloCSa8bsazDeOS0qQ==||21022020
0000016080-07153||OhvECr7EsGlOmZHLxS+XTQ==||21022020
0000016080-07154||gOuUmCBaPX9Wv8sgN9TZvg==||21022020
0000016080-07155||QHeBlSz3yRWHKaDl82A9cg==||21022020
0000016080-07156||o7HvU5IrP91VnWv2zQA4Aw==||21022020
0000016080-07157||SQGuvCWadsFPgaDDAQxd5w==||21022020
0000016080-07158||DyttknpJ5zzUWwz8y4DKtQ==||21022020
0000016080-07159||rw+m5pFweD5xL4qQ21NJ8Q==||21022020
0000016080-07160||n33hnCftuqobFC+YQXiYTQ==||21022020
0000016080-07161||ZDuE9Kr3Mq14NE3mSBBU3Q==||21022020
0000016080-07162||wD/TsZMtSZoz3ErZlGXBNQ==||21022020
0000016080-07163||bDXc+9A/td7XXhYtL6GB/A==||21022020
0000016080-07164||iJ6Nh9shgeDHCFCCbLVLDg==||21022020
0000016080-07165||ALgT1B+nPl1BhZ5Xjl4ugA==||21022020
0000016080-07166||pqB94FIUveoeSORi2fbJ6w==||21022020
0000016080-07167||2EYRpjpGvKadDD6qMDfsgw==||21022020
0000016080-07168||B67He9m75iVFGvQwaen8Rg==||21022020
0000016080-07169||pfOlFVnbf/p44atyEJUTMw==||21022020
0000016080-07170||JVq+O27wDSXfKF/KNsKZwQ==||21022020
0000016080-07171||QNDpQy1eXNvn/lYL6hbyqA==||21022020
0000016080-07172||pbYxfYu4QEHnSsXU3vJzNQ==||21022020
0000016080-07173||sOZm3R9rjCwg/hruRjxkMQ==||21022020
0000016080-07174||sZeQaQFzPngBpCwWAW1jnA==||21022020
0000016080-07175||SlhtQGqzKRVz+4od6nsZlA==||21022020
0000016080-07176||z1rfO/LeBuQD0LNU4kqirw==||21022020
0000016080-07177||IM3a2cd67gt7vFYLUWcBSQ==||21022020
0000016080-07178||sA8o0TBw2sgVwDjN7d9nsg==||21022020
0000016080-07179||HrXb4nZf8qm4MRS4+HU6Nw==||21022020
0000016080-07180||XGHGi7bEYQZlayXXdNH8yw==||21022020
0000016080-07181||QUX1Tzg8ObZPYgMvYuYuoQ==||21022020
0000016080-07182||uMwWr/Fl6lCPQFPqHj1iKw==||21022020
0000016080-07183||S48s1IV2b8PuZCVvjmFdOw==||21022020
0000016080-07184||Wi95eA//o2E9nBKWILRXYw==||21022020
0000016080-07185||XwerDu8NWGUNqlAOvMzfWw==||21022020
0000016080-07186||76AYR3+yUy23nB1JHnfAwA==||21022020
0000016080-07187||2SeAJaiJDlwyy75ujsojqg==||21022020
0000016080-07188||XHRAMJG1bdJ5tn0VaLknxg==||21022020
0000016080-07189||zBeu2324KcfEFYYWoaVDgQ==||21022020
0000016080-07190||VMpN3LK6SEKqjGwkZvyQsQ==||21022020
0000016080-07191||tsBtXyoYIyDQs+I0hqiuUA==||21022020
0000016080-07192||d87KBSgZvXRrLIWgnZQZVg==||21022020
0000016080-07193||gDBrmhR3Y1pyIVJ0PN6jsw==||21022020
0000016080-07194||/QkDKffiDZp7870OQQT6qg==||21022020
0000016080-07195||DXgikGuaWq4BJ0pGjaJwNA==||21022020
0000016080-07196||rFDdialtCbwyjazW73uI5Q==||21022020
0000016080-07197||Z/kI1v8lebBvRRmXf1tOMw==||21022020
0000016080-07198||GA1se7/+G72kkyLbAogpSA==||21022020
0000016080-07199||y4E8PuPdHepYlff8cjpgHQ==||21022020
0000016080-07200||jg9G6LjvKTHKS8Fm7fWRzQ==||21022020
0000016080-07201||hDBeCw9ybctfQJVrCU8o3Q==||21022020
0000016080-07202||CfGvby1scREuX1Ix1sjHow==||21022020
0000016080-07203||9mmOWjNE/ptStzCBv/UgPg==||21022020
0000016080-07204||XQNNtvuKJZ6CR/IkwfVtGQ==||21022020
0000016080-07205||WsoWtT8C1MgbeCDtaYOT2Q==||21022020
0000016080-07206||HcRUKjD6a3W+GVyzjxsODg==||21022020
0000016080-07207||yEdVNjvlmWz0rhDpXPHzdQ==||21022020
0000016080-07208||2QJ69M/cv11aQMHl18VZOw==||21022020
0000016080-07209||1+0oumGtThxFYPWn96/gNA==||21022020
0000016080-07210||z2q9N64vH93ZYbIScLZnEQ==||21022020
0000016080-07211||x9jjXqwArzas632hJ5R7Xg==||21022020
0000016080-07212||jE2Rbj+m5ZAiAwZZMhvNCQ==||21022020
0000016080-07213||SOA9qkCBLQ10Zu1t+4AdVg==||21022020
0000016080-07214||VDUgPwFI+wZXAR7vXQAuhw==||21022020
0000016080-07215||hPHYUFxHy3xrVn2O2rHqmQ==||21022020
0000016080-07216||QPhrwFQ1oh6cz7nVQWWr4A==||21022020
0000016080-07217||obHuljiQ82rv+h8jXZ5/7A==||21022020
0000016080-07218||1OQ7jsh/L+i5b0sSTRU19w==||21022020
0000016080-07219||/6DKmv7ls52FLeKnGdytBw==||21022020
0000016080-07220||hbJVBPBXA2Q8Uu5/x9YVtQ==||21022020
0000016080-07221||/KK0f018YKin7Y9fN41DWA==||21022020
0000016080-07222||jVZslO2DCJX4YC+DVrqqjQ==||21022020
0000016080-07223||pfgIaOMiOY42EkdYgWulvw==||21022020
0000016080-07224||QEG3e9LSvsWakSvKaIOflw==||21022020
0000016080-07225||Nx1LiYIbtKFbXQ6+EmD5UA==||21022020
0000016080-07226||1Cjc+2nZT0Kom/ZZ39w4bg==||21022020
0000016080-07227||3VNkWa/SgxL0lf3muwvAPQ==||21022020
0000016080-07228||88fNn+lCU0C+HakTW2V6PA==||21022020
0000016080-07229||OIbhBaJgstk9ddtr6qt0Yw==||21022020
0000016080-07230||0HMliV2SGZbxIbPsDIyKCw==||21022020
0000016080-07231||eo60OxQsDx4NqlAOvMzfWw==||21022020
0000016080-07232||d9UpQG8olpsrUN0KZHZu6g==||21022020
0000016080-07233||FKvAWiliWrbmXPpSHFjRkg==||21022020
0000016080-07328||xv7yRGCkMefjVq42Yvd+xw==||21022020
0000016080-07329||psV4jOG4LzHrWvbJLiUhNw==||21022020
0000016080-07330||KUkg8lBCAL+QYRpx3yValA==||21022020
0000016080-07331||WNR6fQu2An0YLhIV1j2XgA==||21022020
0000016080-07332||JvcJgr77vFK9QGMOboYJRA==||21022020
0000016080-07333||bfh4MoFgTZIN985/sKoZYw==||21022020
0000016080-07334||c4RRHmKrDHx7DOQbps/2eQ==||21022020
0000016080-07335||f+WV62uBM3ry3FclXeDfZg==||21022020
0000016080-07336||WFb4CkqI83wuXqdZTIpTMg==||21022020
0000016080-07337||NqAUXMwH/gr87+nZ/DncIQ==||21022020
0000016080-07338||DJyYHAiTJozDQTRPhIY5Rw==||21022020
0000016080-07339||BWfZIhD1kCHhFI89zX2sRg==||21022020
0000016080-07340||1H2+Yju4CgZIVnmDr+Z/oQ==||21022020
0000016080-07341||Qgigm2D+4+b0oJ0VL6sGrA==||21022020
0000016080-07342||7TROfmfMaTPdCAiU0Zx6Hg==||21022020
0000016080-07343||AUCLbsEG63eAqiowSgOutg==||21022020
0000016080-07344||q83aax6x47S+KILrlGVdOw==||21022020
0000016080-07345||dyUAMds3TNQQy1l1CQCH8A==||21022020
0000016080-07346||K3Lbevk3KN1j/8O561xX3A==||21022020
0000016080-07347||Bjh0oId3CgxC/nsm2hCKvw==||21022020
0000016080-07348||n2empUDjMar51eNtv177ug==||21022020
0000016080-07349||3j59zIXa4pDMjBj0/BPgdA==||21022020
0000016080-07350||8XzLORx8xAFexYBhnCKc1Q==||21022020
0000016080-07351||QUxSI3C84gOpLwcfd02LSA==||21022020
0000016080-07352||ViP3HUM8VGqTknQzYIwWZQ==||21022020
0000016080-07353||ITMn6rSL37cDd15gBLknUg==||21022020
0000016080-07354||+Gswc90yN9PuExGWM8tS0g==||21022020
0000016080-07355||FpFPesJjPXtKHlk9zcB2pA==||21022020
0000016080-07356||jm26g2xHcb5t8qMBO+/djg==||21022020
0000016080-07357||6qRZ9mrHg1t957SvgHaF/A==||21022020
0000016080-07358||5B52HadJMypPgWsK6iW08A==||21022020
0000016080-07359||UhUzt4cE+ijynbg1b5yvLg==||21022020
0000016080-07360||UhUWj3y5fLcfmBqRLQedRA==||21022020
0000016080-07361||p0tSofFnmfxdQWsThN/aiw==||21022020
0000016080-07362||LTA3zgNEi134hikUrvSI2A==||21022020
0000016080-07363||qkgVUQTSr+skzBTSYoREDA==||21022020
0000016080-07364||dwIFlpMkd/CmjHT1dd7VoQ==||21022020
0000016080-07365||SmNHjs/FATMuTIbX/gDfSA==||21022020
0000016080-07366||N3dOws3DQ69j90O6uTcjEA==||21022020
0000016080-07367||j7MxcjsxlN8Nk6rvxjfqGA==||21022020
0000016080-07368||Md3XixaomV0DSnUOaFefqw==||21022020
0000016080-07369||of9XhdD0JPn5V6KQLwwW9A==||21022020
0000016080-07370||oQyNnQAG8Ggheumj3opHgQ==||21022020
0000016080-07371||JnLkC4bgHUKwqkowd0GtMw==||21022020
0000016080-07372||hL4jwtoa6UUNPpjY7enk3A==||21022020
0000016080-07373||JgG4edICTZychsGaEPE2RQ==||21022020
0000016080-07374||DZle+RglYs4PZ2OT0hpFDQ==||21022020
0000016080-07375||5sUStWdwR0q96oI7KK9aEA==||21022020
0000016080-07376||Q+FIpLEBmtCXmO1MQeFT/w==||21022020
0000016080-07377||PhaMVinwiDIufjl+zamq5Q==||21022020
0000016080-07378||wIx7TU3z2qOFyaUddxiigQ==||21022020
0000016080-07379||cTxd8cuFs0cjkht+9dFKPA==||21022020
0000016080-07380||kp1zkcBjUzxYR7WDmxPfUg==||21022020
0000016080-07381||rZ51qOpecYscut2ILiHcxg==||21022020
0000016080-07382||uudZuAhGqmYl3Ffkw37HyQ==||21022020
0000016080-07383||oFhysTKnjYskzBTSYoREDA==||21022020
0000016080-07384||71JBaGKXr/3cS595PU/Blg==||21022020
0000016080-07385||XwYJbMCjZHe5glYK7aYeGQ==||21022020
0000016080-07386||Yo85JPuxcvewtH77MXzb6w==||21022020
0000016080-07387||9T1U9aAWmH8fJn9P4Hskrg==||21022020
0000016080-07388||SHAo8PvTZXSUKYqKu6RPqg==||21022020
0000016080-07389||X0ns7ACdAp8Vpl0T2+Fpgg==||21022020
0000016080-07390||DpyDmbGQxLuLZKJxgcAD2w==||21022020
0000016080-07391||mZRk4Bm0D7W3XCjPJWJdsQ==||21022020
0000016080-07392||+U5dMl6OHCnTUsh0QDgixA==||21022020
0000016080-07393||T+VRMbDnW0a0SvBUStiG4w==||21022020
0000016080-07394||wNdGvuym2aByaluOMnOejQ==||21022020
0000016080-07395||pKSSGd7x71kLFsHPthKqqw==||21022020
0000016080-07396||57jnwnXwOyxk9ROUMkzA1A==||21022020
0000016080-07397||rSw1W9+b6Xf49UmQKVwGPw==||21022020
0000016080-07398||5quILZJJDtKOd+/Qgs5BLg==||21022020
0000016080-07399||dvpgYqLY9KOWDINeEj+Q3A==||21022020
0000016080-07400||/SrWOuIgeXWSTcrseOmQeg==||21022020
0000016080-07401||Q2SAjBIqTLTRPb/FSXNetA==||21022020
0000016080-07402||Y0oMhADjX6f96x0ap2KztA==||21022020
0000016080-07403||eQQzTkRkUppxJyODX83WkA==||21022020
0000016080-07404||5PrY5zeWzUpDXK9w2eRBBg==||21022020
0000016080-07405||/7JIw9fV0LhIJmnKEe7KCA==||21022020
0000016080-07406||DBXvem0GAcpT1yyennRUaw==||21022020
0000016080-07407||KvVZyhj3UVNOwP2cCbTQfA==||21022020
0000016080-07408||V2FCl3zFYffkKeKJuqD7NA==||21022020
0000016080-07409||t0+2orGBdxoUD7GUPjQuBQ==||21022020
0000016080-07410||ZGDZaE4VInwMPkd9S8S2xw==||21022020
0000016080-07411||BOGWu5L/elR5i9Sdge4QHg==||21022020
0000016080-07412||ZK0ZdwtnhGT8AwecP5GkjQ==||21022020
0000016080-07413||ObR+5mjOZNX6acYiYmo1WA==||21022020
0000016080-07414||fzHlRqiMfvy+5YclcQlwMQ==||21022020
0000016080-07415||MsVJJzrU6txMWOAyfYqcSw==||21022020
0000016080-07426||eaSjKSIM1yHPhR0g5Xf1TA==||21022020
0000016080-07427||bkgA7CmVYf1b5Y7dEJReyA==||21022020
0000016080-07428||lsDMjByipfZaXpyw+iPF0w==||21022020
0000016080-07429||Rf/3d3WlhwqmuWNXegiBbA==||21022020
0000016080-07430||xiA5sCqqcifIsd7DekbQvg==||21022020
0000016080-07431||jWHh3lgfD1w9CViXa1++rg==||21022020
0000016080-07432||EBpwunkgWtqgoOFDBtXgIQ==||21022020
0000016080-07433||W7dyeqobUqlsbZXaokmQ6Q==||21022020
0000016080-07434||2XCMQKTwwOnonOEp+tqE0w==||21022020
0000016080-07435||u79rb4+zKlGlPDjO4fZpxQ==||21022020
0000016080-07436||GVOBPhNKH+FTKsDYqFsmDg==||21022020
0000016080-07437||+CxN24DjftqWDmQlFBZFGA==||21022020
0000016080-07438||ymjH9nl3WUFj4eFW3DP87Q==||21022020
0000016080-07439||fecOEFD2AmCBnuB7ptabTg==||21022020
0000016080-07440||+iNMfaCrecpih5fvVsdGMA==||21022020
0000016080-07441||Vo3hpsKNgMJRqMJqUqFOLA==||21022020
0000016080-07442||Ja0gAFHsWbawQJvgCBHQ1A==||21022020
0000016080-07443||fcuo7Y8nOAN4H68Q7QjTfA==||21022020
0000016080-07444||j8XfOzGWAlV2iR4+ZuheXQ==||21022020
0000016080-07445||yVeA/68wKrjvFJtYC+yc/Q==||21022020
0000016080-07446||AhctkAsgwDtQC+Yad3gmPg==||21022020
0000016080-07447||26W7HyCbwrMVpl0T2+Fpgg==||21022020
0000016080-07448||UI9TcZ06dewvjFiYfh6pag==||21022020
0000016080-07449||z69Xk0B6rGSamagVB75XlQ==||21022020
0000016080-07450||LC3fkCJlVLFZozrlCUN4Dg==||21022020
0000016080-07451||mZiR3mUPri/Sa9XPY2NQ/A==||21022020
0000016080-07452||4JDho3z3F+yivaW2y8uT8A==||21022020
0000016080-07453||VpGJ7Nd22GhW+1LoewobdQ==||21022020
0000016080-07454||aNs8EenfQaE7N3w2YJCnZA==||21022020
0000016080-07455||o+lVE7noGiLOyj6o5lIDMQ==||21022020
0000016080-07456||KA4rmrajuJjLZj3sZ0jSnQ==||21022020
0000016080-07457||54K4sYq8Y7TY/isnhZrI9w==||21022020
0000016080-07458||AWHFqjXu7tU4Xn9hPj2d3Q==||21022020
0000016080-07459||74WuXET4xaLLs7l8rATnxQ==||21022020
0000016080-07460||k0zZZNM1BeXI+Di+yjD6kg==||21022020
0000016080-07461||+hIzPq/sFNMad87HLr3AbA==||21022020
0000016080-07462||4BgWkKhRpOFmN76HeOaYKQ==||21022020
0000016080-07463||Q0tCc5PdCYC4m4BTpSocqg==||21022020
0000016080-07464||CmAuMJXpQbd0T1ScU2BoNA==||21022020
0000016080-07465||giVfUe9+eMvSiaNGcVHW2g==||21022020
0000016080-07466||0a8BtYXmTTbr7DCsXHcK1A==||21022020
0000016080-07467||54sEtz2CChnCJoldPf+T0g==||21022020
0000016080-07468||R7owOIG7M2XKwPbXoIO1qQ==||21022020
0000016080-07469||08FW4AAJA9OHZycWnUktaw==||21022020
0000016080-07470||OyPoPM9+W+nYNuKKL5bpAw==||21022020
0000016080-07471||5hZYowb5D7N957SvgHaF/A==||21022020
0000016080-07472||cSB2VTDMMNc0/GJKp8zwAQ==||21022020
0000016080-07473||stEt1Na+4oeWFj1ysWbcQA==||21022020
0000016080-07474||riYecU5RkoRxEkdTZ74N9Q==||21022020
0000016080-07475||sMMoJv5ljs3O15PIFxFZoQ==||21022020
0000016080-07476||bdwIVHq4Ri5IJmnKEe7KCA==||21022020
0000016080-07477||EgBBfcdMxClNyRivCDyt7Q==||21022020
0000016080-07478||hjDeM+6Ddv2L5t9h6p+xqw==||21022020
0000016080-07479||WMpCKR9FlwR5korUP7MsrA==||21022020
0000016080-07480||TkOLTyRfRtxYWDQB3n5aaQ==||21022020
0000016080-07481||MwGSRPiTN85mGvsRkt1VuA==||21022020
0000016080-07482||xjRBV+X3eXZ7k83t9I8R/A==||21022020
0000016080-07483||0qCZ0sz8nyKYqQA//JE1eA==||21022020
0000016080-07484||stCpEdNa/8dsLbO/025+Bg==||21022020
0000016080-07485||PUpNFJl8latpUCO5w+HZLA==||21022020
0000016080-07486||DVanOd7XeWa28efQZkz/Ew==||21022020
0000016080-07487||Vk3ksEL0lRsuHPXGrm/ouQ==||21022020
0000016080-07488||uelVjbogT/qYtx6cbANZKg==||21022020
0000016080-07489||5WVyeOAuBlK05WbrOjOQFQ==||21022020
0000016080-07490||wyx5oL0FUcbvzCaWv1yJZg==||21022020
0000016080-07491||9yFcZZdO9wbvh/xXCN1xKA==||21022020
0000016080-07492||ow2ps+dkzjYbKf45rlKB0g==||21022020
0000016080-07493||ZFlt5Oeml1fLc/V/KlwTlA==||21022020
0000016080-07494||CiRthjM+IbxSDx+Wn5nRMA==||21022020
0000016080-07495||YoGaouGk6tlzohC49BF8nw==||21022020
0000016080-07496||KvNdLqJipLe5R8CWDKUNJw==||21022020
0000016080-07497||s7FVBG914sYOqoZhpDUKdg==||21022020
0000016080-07498||gg4n2BYv4w07Hiat179WVA==||21022020
0000016080-07499||8AA6FrKk+uPz2EWhIZNhdg==||21022020
0000016080-07500||G6PQ71x3ZN+QWZYemKjQNg==||21022020
0000016080-07501||iPDGuFIPKq8p0yle1kBz+w==||21022020
0000016080-07502||fggm60l28DVClWm/w5J4ig==||21022020
0000016080-07503||59aG5hh3PgdJE5bgv1DLrQ==||21022020
0000016080-07504||pWrHzFogo6kdDVUmy061Nw==||21022020
0000016080-07505||cPN+pF4AuzNih5fvVsdGMA==||21022020
0000016080-07506||QCjNCinYezNUXMkxn2bL8A==||21022020
0000016080-07507||qUdvDl3+3U0W6K7j4ipANA==||21022020
0000016080-07508||ZA440cddRx+uijtGsAVmjg==||21022020
0000016080-07509||bObcK6ta7VuBi/bUfOeIOg==||21022020
0000016080-07510||H14weMhF58eOGuExzZHNwg==||21022020
0000016080-07511||MetuDNCiXB4N82j83CprVw==||21022020
0000016080-07512||zwogu1pWk4mQYBvbRem7wg==||21022020
0000016080-07513||hb9hfg9+w2Jn4KWf5Bt6Pw==||21022020
0000016080-07514||Bp/orZ0tjTfNNx6ZACzquw==||21022020
0000016080-07515||Zqt5mfYG/4AT+FpSVgwTrw==||21022020
0000016080-07516||a4PsRUl7FTb5TDLw9CiXHg==||21022020
0000016080-07517||2MN0tFpJN79Nyd+Gq3S3Gg==||21022020
0000016080-07518||WhxC2yQb03XD+VwNZatk5g==||21022020
0000016080-07519||StzlhZuuX1OalOecDhN2EA==||21022020
0000016080-07520||Zs7weXGHsVJEtkriiY/AKg==||21022020
0000016080-07521||MLUgwRVeYtPnTOLoB63M7w==||21022020
0000016080-07522||i/7Ash3s8rsibSdgnqaFMQ==||21022020
0000016080-07523||ROtnhSt9nkcGk+vMlxv6Kg==||21022020
0000016080-07524||QpWYL+KtHgSWsc9hKt+VNQ==||21022020
0000016080-07525||hFNSS5dZ6WOePE4MbiZaJQ==||21022020
0000016080-07526||IjG+UCJsQdIZzA9ODLJ+ag==||21022020
0000016080-07527||zkJnM5L6kR4sPF5C+N6ocw==||21022020
0000016080-07528||2Lcffc6DjnEn3WzBvZeXpg==||21022020
0000016080-07529||glfWJox+LTPsHc8nnxyADw==||21022020
0000016080-07530||G5iPaYThNB8rIBD8Dc+s7w==||21022020
0000016080-07531||Fy0KOyetcqPlmqWBt4Jakw==||21022020
0000016080-07532||pWifgUEaktOFaNwX8ihXkA==||21022020
0000016080-07533||bx7LVsv5T/4dl3J2qFDqeQ==||21022020
0000016080-07534||jEmu3B4SFlgetZFOJj4S5A==||21022020
0000016080-07535||ONwqG9TZfoOP/wzqgidEhQ==||21022020
0000016080-07536||2BJnmwTeRY+SQA2tUxMAGQ==||21022020
0000016080-07537||ptxoNKPFbmAF5FMD2LulqA==||21022020
0000016080-07538||48c/4HVylGQh5Dak9z+NIQ==||21022020
0000016080-07539||MpEw7Wvo/7OZLlknZx8PCw==||21022020
0000016080-07540||TJpGKk6L0i1pfP8mq8F+UA==||21022020
0000016080-07541||eXoUuUT3vmv8ke/qKzPwGQ==||21022020
0000016080-07542||9B22RBEbomifCY9BtThyJg==||21022020
0000016080-07543||C7jXBYHExkRmqo4gnhGolw==||21022020
0000016080-07544||m16Z7TkThmU3IJu3kMAstg==||21022020
0000016080-07545||hLhZwmPnrAOFfninQfLciw==||21022020
0000016080-07546||5Yn+2haSgzNkyQKClFV/OQ==||21022020
0000016080-07547||MJfg/QttOmBoPNDPY4SenQ==||21022020
0000016080-07548||xE+Q7IX5TcVEJfKNlLPrGA==||21022020
0000016080-07549||QsNHVqH1GAMWL/CwgRGGyg==||21022020
0000016080-07550||fV7aTRILWl+b0jssrG4LEw==||21022020
0000016080-07551||m1MFuQ+IWyG+gO9QODUxZA==||21022020
0000016080-07552||lbGhGML9QW2E35sggk12Qg==||21022020
0000016080-07553||2F7lqosYgj6/vJYzyAZGlA==||21022020
0000016080-07554||Tp2uFXhKZg0AHjsytdxdCw==||21022020
0000016080-07555||FJX/GzpQeZeYlHIO64QkPw==||21022020
0000016080-07556||m8R7lyNLx+OSJ3WhPmgCNg==||21022020
0000016080-07557||36BCSl9lsQonKFGbqSoo1A==||21022020
0000016080-07558||YyIFkmOfKoYyrds93IDkLg==||21022020
0000016080-07559||u/4R+GLQkJMNydIvDv87WA==||21022020
0000016080-07560||YGTfGdBbXFRuYf6l4zmyvA==||21022020
0000016080-07561||ZquFnGjVlI6I6cYjyNO6jg==||21022020
0000016080-07562||Xf71KLBRjpPsASpqwtuwEA==||21022020
0000016080-07563||PO01TU/PQEu4WCDE1CXC8g==||21022020
0000016080-07564||hRirFUXh9YraPnAPjhu0Zg==||21022020
0000016080-07565||sR7CZAeN65AQ+nRonbXUBw==||21022020
0000016080-07566||2sr2L+B3jL0EVNqW2pqwew==||21022020
0000016080-07567||l0O9Hv7TCmiohcfm2rBphA==||21022020
0000016080-07568||g8puiaitTJ91dW48fIxqOQ==||21022020
0000016080-07569||tbU7xdpHZ8OWhgJbPrx3Gw==||21022020
0000016080-07570||j84vi9kc7EM4XGqYlXFflg==||21022020
0000016080-07571||UFYU0OP+CfegpX1YQ03Ngg==||21022020
0000016080-07572||yBIwgzHEMfhseYQYTNBYhA==||21022020
0000016080-07573||jJ/NhMhem1FqgMoRkg1TEA==||21022020
0000016080-07574||BStntTSvbdDbBApgj26k2w==||21022020
0000016080-07575||jQQlX4NMkNqwlTvKbQdGWw==||21022020
0000016080-07576||3W2PTc4c6+aCJgyx2MOPKg==||21022020
0000016080-07577||hw9LP0rC+R0Bb12X+3iTEQ==||21022020
0000016080-07578||T0XEfTNaMBpq86QaJUH2Fg==||21022020
0000016080-07579||HMB+6ZMEHw3q8nlV5jyKWA==||21022020
0000016080-07580||MCdO7Kr+IdIB5mBfWSTP/A==||21022020
0000016080-07581||+8MIjwF+VUs9nTwNT5aWKQ==||21022020
0000016080-07582||2pegtcVyZgDELdNVVwuK1w==||21022020
0000016080-07583||BJb+Lu5viGesPDsuP1eB8Q==||21022020
0000016080-07584||A/Vq9LY/KQ1z+4od6nsZlA==||21022020
0000016080-07585||t5gAB3n11Am4m4BTpSocqg==||21022020
0000016080-07586||e0CcOMesDBiaDRcx8amUlQ==||21022020
0000016080-07587||0wJZzdI/VBv1VCiANYujpA==||21022020
0000016080-07588||l3FMENB2kWHuPmR4lGDtzQ==||21022020
0000016080-07589||zUfxWDNNCBZbCuOK0U8lIQ==||21022020
0000016080-07590||+6AejE4Ih82ggH0dN36ABA==||21022020
0000016080-07591||hwb7X7pKsJNkux5aR+yozQ==||21022020
0000016080-07592||q0qRjMFOQR9fgw0FdIx6KQ==||21022020
0000016080-07593||EsAbjZv45vlOu1Gtk6wGAg==||21022020
0000016080-07594||Iff98jf6iuyyl0nY3F9ILw==||21022020
0000016080-07595||V7P/ie/qM62u8FrLhzy8wQ==||21022020
0000016080-07596||2n5bodfo6rxGC2Wa14xiiw==||21022020
0000016080-07597||BeuNaYs19UAuX1Ix1sjHow==||21022020
0000016080-07598||2DRjpesLZ1sHbYoyZWwPuw==||21022020
0000016080-07599||lI7Ueawu2xRJR0FaZxrJCw==||21022020
0000016080-07600||aI+s3M30PKua51LbHlgrDA==||21022020
0000016080-07601||UJA50waFdC6duvqv9qU9Tw==||21022020
0000016080-07602||eBPzWlC3gpze+qoy1sHt3A==||21022020
0000016080-07603||a3f/LnPGX7/721v5LXATBA==||21022020
0000016080-07604||C3OOmA7+gZC5HMsUfjeiAA==||21022020
0000016080-07605||rzJs2m992Fsg/hruRjxkMQ==||21022020
0000016080-07606||5fHpfR9sfleF1MVnpdk4AQ==||21022020
0000016080-07607||23KBfKfDwTHrGnLQxG2h7w==||21022020
0000016080-07608||sSLQAAjNj4WomPgkKmQ6lg==||21022020
0000016080-07609||rqe7VbJJRhg1T5yGUdaabQ==||21022020
0000016080-07610||9/6kNwdzS3IchQIgvyNkIg==||21022020
0000016080-07611||B12FQWv/QbqdmaCKhFjn/A==||21022020
0000016080-07612||70sBPs1FHR+4kS/9DSbUIA==||21022020
0000016080-07613||x0aEhhqycxESJlU3x1VYEw==||21022020
0000016080-07614||FjtJMrdllazR1FbtMHJolA==||21022020
0000016080-07615||QEAJlTdUwAdQ6m+0rl+QTQ==||21022020
0000016080-07616||LRme0MWAEkCUHEu2f85/xw==||21022020
0000016080-07617||5mRe7hpqbsSjDAHbPgQ7fA==||21022020
0000016080-07618||f9ZabrvEnrET/HSuKItfQg==||21022020
0000016080-07619||Gz3JAHx+Ri1aQMHl18VZOw==||21022020
0000016080-07620||dCA2cglAfoarQI8mE5Kq0Q==||21022020
0000016080-07621||kCA+vHGO9aLEWhL/reKN6g==||21022020
0000016080-07622||0ecKiYOQzglj9KHG9GhIkQ==||21022020
0000016080-07623||9DhcfA37DpJ921xZyjrWCw==||21022020
0000016080-07624||LPiRzP/qqyp5korUP7MsrA==||21022020
0000016080-07625||H2Va1soIp5TKaubPBzObEg==||21022020
0000016080-07626||XliB31BxVk/DlYDJwDcDOw==||21022020
0000016080-07627||5q1BS0MfcMa59hy4PrUi3g==||21022020
0000016080-07628||JPFhWvk2O94kAdHV/7ECpQ==||21022020
0000016080-07629||JMimSVfpxdLyR8SIk1jeBg==||21022020
0000016080-07630||yCPFtVBCGD0jbE4e4ZCiZg==||21022020
0000016080-07631||WVSRDg1r0adYsTfphxnpYw==||21022020
0000016080-07632||TrFrXhgpL+ls7t8ROT7+Gg==||21022020
0000016080-07633||o/Xv4iPZohvZ+SJ6Did4lw==||21022020
0000016080-07634||bY1BL8u+u1v3PfWT8FIwEw==||21022020
0000016080-07635||HqiJzgNKYjOVfSpS3mcLwA==||21022020
0000016080-07636||G52CZCyXu9WxAYeJPZqydA==||21022020
0000016080-07637||7AwAqEf9jTv20z4fgZ4A0Q==||21022020
0000016080-07638||MsTXJ9zJGDB5QAnJXL95RA==||21022020
0000016080-07639||+L7dxEjW/skE7mXheTMUjQ==||21022020
0000016080-07640||E3ZuZmyvkfrO+TstUFu3qw==||21022020
0000016080-07641||pO7Og79wBsC9GaCpQfAmXg==||21022020
0000016080-07642||VNEPIsI/oaQxOanrdIHgfA==||21022020
0000016080-07643||QdHkkqG/cIeTT9/J+HToAQ==||21022020
0000016080-07644||baUbQVA2pTNKv3VicedcjA==||21022020
0000016080-07645||WiFSG7m7HHv4ThWYbnMTFA==||21022020
0000016080-07646||dLDXQGOImjJnfd4ormhYXQ==||21022020
0000016080-07647||8N/bKwu/NmIumb6/SkAOBA==||21022020
0000016080-07648||Oy4SU0y3Mf8dxqGD58qFUw==||21022020
0000016080-07649||9XXmPYeBcBS5u7Mp75xvAw==||21022020
0000016080-07650||MbVHGKEsrc5ixSkUCpJ3eQ==||21022020
0000016080-07651||hPYrQXgWiGssp4+fWR11tA==||21022020
0000016080-07652||oGGDXxITNGJ2GBoLlitCZQ==||21022020
0000016080-07653||DmAc337Uv5vPsyfsDWlE1A==||21022020
0000016080-07654||bFDCuCSI4mHZpFqF2wNUsA==||21022020
0000016080-07655||P4v6a/S7axJgrazPVVw8Bg==||21022020
0000016080-07656||M6RNwypA21DtxNXtY1wTEA==||21022020
0000016080-07657||UhHORbLm8vdrOoKx98gJtw==||21022020
0000016080-07658||Br4j836nTUY5EMcaorOwVQ==||21022020
0000016080-07659||lkQTLzeCEWTzYxqXAV+yew==||21022020
0000016080-07660||0QE8bahr8liHLyqPORqWqg==||21022020
0000016080-07661||e4qQvs2Zcs/NprPg86FZfA==||21022020
0000016080-07662||euFHD9P6ZKnqaAuMGOkC1w==||21022020
0000016080-07663||iHhYFVox77lDVhxl7v7iKg==||21022020
0000016080-07664||0cX6HCMqUxIfPuRQyDbakQ==||21022020
0000016080-07665||qAp8OpYFkcVLrT1QaqyUtQ==||21022020
0000016080-07666||oA3lgSE62OjbbQI+EKs3mA==||21022020
0000016080-07667||2EXvsCfLbxEMxpT3Ng+tNw==||21022020
0000016080-07668||OUNa0SR7kNoDYziyhTzyHA==||21022020
0000016080-07669||FDFMr/IP2cLskW/kSIkhbQ==||21022020
0000016080-07670||0sk0Efij456LnJFLkG8+NQ==||21022020
0000016080-07671||KfU+XqKY2I8umb6/SkAOBA==||21022020
0000016080-07672||2di7HgjmVfs2+IlNUMnvOQ==||21022020
0000016080-07673||GtjQFuOBqpzCmVljQp3NxQ==||21022020
0000016080-07674||mXm4cN8GBgbLXfP7pJ23jw==||21022020
0000016080-07675||mEzySaG4IqVQTYhH7RkBxg==||21022020
0000016080-07676||K4iX2//ZSJqugyeYSv+jjw==||21022020
0000016080-07677||JbwjluNwkz/VA1wr1UPKGQ==||21022020
0000016080-07678||dny0vg2Vn1NiZEyEpF5Heg==||21022020
0000016080-07679||9DtVOT8cLVKPiQDWp1ouOw==||21022020
0000016080-07680||PzmQrouRxSYdbOnYkVbOuA==||21022020
0000016080-07681||/H6zgA/lValGyEzW/h4Tfw==||21022020
0000016080-07682||adqBBbmQXBdjFzvC6XElHw==||21022020
0000016080-07683||LEUESEeEIHWXaYNUWevsvw==||21022020
0000016080-07684||HUpEFEMdNsq+sOLYtP515Q==||21022020
0000016080-07685||W2+eXXR3wBjZ6oCDQPiL4Q==||21022020
0000016080-07686||fygPCjos6JNvVokZfVY/OQ==||21022020
0000016080-07687||Ib0EtsIWVPVMVb8Jd17jJA==||21022020
0000016080-07688||p4jMxFDCj4JectbA7CatFw==||21022020
0000016080-07689||Nko+EqMXzQxi0QMKvXPs7g==||21022020
0000016080-07690||XTYxmBNkFEBip9K3sFiWWQ==||21022020
0000016080-07691||c38jftAEkmdzxSGFlBwxIA==||21022020
0000016080-07692||1f0NOkZ7jpjOKs5TLrfwQg==||21022020
0000016080-07693||u0EAYhYIF155fAk7IxaYcA==||21022020
0000016080-07694||nBIif6nm6SNifIpBdfz/8A==||21022020
0000016080-07695||SgjYfrGyxCzU1hZ5Tlub1g==||21022020
0000016080-07696||fpdhUEJeA2rbBApgj26k2w==||21022020
0000016080-07697||HZucIx1SvOtQXhaVofw+Uw==||21022020
0000016080-07698||S18LPAcswaUmFcxraLvxWQ==||21022020
0000016080-07699||yEr2ZPPERtkRRylJ59lUBg==||21022020
0000016080-07700||JbrBIdw4y/OrrRUE2an7Tw==||21022020
0000016080-07701||IECV1EYmjXLRBso/z4zCOA==||21022020
0000016080-07702||nm5y22DVaq/sUJrUw4Mstw==||21022020
0000016080-07703||IIggLtaqejpaBrX82sMlzg==||21022020
0000016080-07704||Mxw9WuvFRokjw3W8fO9FLw==||21022020
0000016080-07705||whk3qEb0CIZ94wY5YFhaMg==||21022020
0000016080-07706||XMn4yJdkILQE/D0v2yc4hQ==||21022020
0000016080-07707||ql+P+rLcm44RPTj5xAnwnw==||21022020
0000016080-07708||zbBKzryWiESobY3LAOo4OQ==||21022020
0000016080-07709||OYhDWcKSVM5xuvAkgj0Eig==||21022020
0000016080-07710||UjHmwheHVI+JFiV1nBR+Vg==||21022020
0000016080-07711||6YGDzZPQysGucrFPaxFEPQ==||21022020
0000016080-07712||UioYN0j05bDm1SfVBHEvFw==||21022020
0000016080-07713||U+YmVFtVv6Xr5S77Ql4VXw==||21022020
0000016080-07714||PDiEjwhFQzV1mzzF6/q5OQ==||21022020
0000016080-07715||e45EKVcElA6sWCiFkHu5Pw==||21022020
0000016080-07716||ePy7Bpyd8k/NLnHdEh36LA==||21022020
0000016080-07717||i5ZoVNDvjZE8041Wtt3TAg==||21022020
0000016080-07718||lr+NA2b6l5gewlZg8mgQig==||21022020
0000016080-07719||szp1/bZraMaad5aj3C75Kg==||21022020
0000016080-07720||QS6Q9M/CpCKlx3Aiao3rZQ==||21022020
0000016080-07721||ySEQramc826f1BYeYGEhtw==||21022020
0000016080-07722||vlosPSYntuwigL4wgfYEgA==||21022020
0000016080-07723||IQxw1w0oDbPKS8Fm7fWRzQ==||21022020
0000016080-07724||DcZ222dHC2ZOfTnecKya5w==||21022020
0000016080-07725||oLm56vjY5DUa0RZdDJeRYg==||21022020
0000016080-07726||4SG2f1ekj8HUfMNUYQY4/w==||21022020
0000016080-07727||lKUthi+iLE3LF/tz7jrzxQ==||21022020
0000016080-07728||AMIxIiiDD9PeR0RSH54JrQ==||21022020
0000016080-07729||qVaJ9VfwCJub3NbQL1IDYA==||21022020
0000016080-07730||bG6N6ROe+gU0ao1cWJ6bLQ==||21022020
0000016080-07731||SkbEV4OArwzlV4hfX7bL1A==||21022020
0000016080-07732||UZKm0blr6C5xuvAkgj0Eig==||21022020
0000016080-07733||djBtSyGCw7FXagk7ijm7Sg==||21022020
0000016080-07734||1eLOyFLeYvaYozSv41sJiw==||21022020
0000016080-07735||KjR+jSLkDE+RAqwpm1rLlw==||21022020
0000016080-07736||oXjMowCVdwof6Pjr1Hl+7g==||21022020
0000016080-07737||JVKV5dwNeIfbhOlDNpHmJA==||21022020
0000016080-07738||xyQzSzuSLZDML+OfsL4t8Q==||21022020
0000016080-07739||Pp7PG1LPr2vXif6FdlNLfQ==||21022020
0000016080-07740||fJbPlbYLHe4YRGS3HtN/dw==||21022020
0000016080-07741||15yyC18w8ylBvE2o9gzyUg==||21022020
0000016080-07742||+pPFpUDi0A0LINWu+g8iGg==||21022020
0000016080-07832||Jeqfdel2EKi2urrZewxt1Q==||21022020
0000016080-07833||g+6U8bLxztYoiRa1bkiV7w==||21022020
0000016080-07834||mgAoUBKakHCO5YwAV7klhw==||21022020
0000016080-07835||kItW61nkvgUJS+Ksj2Ygbg==||21022020
0000016080-07923||WM+b4xuhwPR0Zu1t+4AdVg==||21022020
0000016080-07924||r+lsSBeidLqqK3s8fK+3lw==||21022020
0000016080-07925||9pRU4Y71Dmlf8kIY05i9UQ==||21022020
0000016080-07926||1kHQow/smbbjgUoa/Jn1GQ==||21022020
0000016080-07927||fb1HXJ6ENHsNVfe4nJizDw==||21022020
0000016080-07928||sMqQdBOb8Pm3hiEbkEtdQQ==||21022020
0000016080-07929||6JF73VnY2ZZ6TNBlTnHhyg==||21022020
0000016080-07930||dv35MDkFWkcOYfNqlqidCA==||21022020
0000016080-07931||zc4I9JLOE0mYtx6cbANZKg==||21022020
0000016080-07932||1KVGhIV27Ut9XdxuxmZW3w==||21022020
0000016080-07933||FXbrPTlhDSke3gesc5/ZiQ==||21022020
0000016080-07934||2ljwB7FcEe3NhG86UAGkPA==||21022020
0000016080-07935||kX330A86qHMxoBOFHDHDhQ==||21022020
0000016080-07936||ZfWZuveiqELzAuz4LzRC5Q==||21022020
0000016080-07937||L/CTBJG35njw1FAd9LHc2g==||21022020
0000016080-07938||xGX3wMxfsuL6atlNKkqkKg==||21022020
0000016080-07939||NN8XBM8qhq1WCpMNoSn1NA==||21022020
0000016080-07940||D0u2njHinwW8RmWce+q+4w==||21022020
0000016080-07941||YV8CHeFvoR85eqa2mdrWdA==||21022020
0000016080-07942||RA4gzHjQaBpb4wBzZvEnYQ==||21022020
0000016080-07943||eSn5oonKOqX/UwgNxQmt/Q==||21022020
0000016080-07944||d7/dwTLGrhBKwjX6ZvFsPw==||21022020
0000016080-07945||WnxdnBGFeIQqtX8Evk6XdA==||21022020
0000016080-07946||R1Y4XIX7W8RvXznSsa5e+g==||21022020
0000016080-07947||/lwpZYwX3sDM0Zi58pD0Cg==||21022020
0000016080-07948||L0G0DMZZbZddf2dHCzQ1fA==||21022020
0000016080-07949||TgMePFYqGBDuF3eB5NAHaA==||21022020
0000016080-07950||wcWJHzRjR8QwnXI2uxsrfg==||21022020
0000016080-07951||2rdDbGixkAPbXPo0de9UZA==||21022020
0000016080-07952||W+nb8PDSfvKdoZ4SKLa6vw==||21022020
0000016080-07953||KtqtuoRB5JM4T+w+eCV63A==||21022020
0000016080-07954||Obsl8A+Wvg6YR1ThKRSr3g==||21022020
0000016080-07955||zVonbMJhkXBISiiNXEa9Uw==||21022020
0000016080-07956||bcokdxE8Jvf8u5TBxDltEw==||21022020
0000016080-07957||cBwFs2oR9o3Cht4KcC8YXg==||21022020
0000016080-07958||mAliz5qZh9nRXADjlN7AOQ==||21022020
0000016080-07959||dLys0/S4dv6UE9C9eWRuFw==||21022020
0000016080-07960||0t8kyoEa/3WkeMIwCeRzyw==||21022020
0000016080-07961||WVrqHnzJx3JzR8QJijFpgw==||21022020
0000016080-07962||JtuQrzHy9lKyAUTjQGjM3A==||21022020
0000016080-07963||mpAk34pKEDS8Erqw8v81pg==||21022020
0000016080-07964||LLt9qWJmXnI1OfSUuXWK6g==||21022020
0000016080-07965||Q9TxN9/ysZviYomGYZGfwQ==||21022020
0000016080-07966||tl94pbdob78kTZyFRcghzg==||21022020
0000016080-07967||qcXeglFGjXBkjuuzNthRMQ==||21022020
0000016080-07968||L3kocZkbhVkk/SeMOBcPeQ==||21022020
0000016080-07969||+3BFb14qfpx/qs+Ue3Hzew==||21022020
0000016080-07970||y13/nP2Z8MdclrjjPIUfJQ==||21022020
0000016080-07971||nJBfrLNW6NvdJj7lq/ZZWg==||21022020
0000016080-07972||UgD1zHjzfkvHdCfk+ezcBg==||21022020
0000016080-07973||yVUhFpsIBrTMG7G5yF3g0Q==||21022020
0000016080-07974||ElJTjHNK5nbFen/fhXrZIg==||21022020
0000016080-07975||H5Gv37QhkYxzshR6w/4M7A==||21022020
0000016080-07976||JdHgnB8c7FilTsVgqpwpMw==||21022020
0000016080-07977||xA2lQM+skio9XwaGb8gnZA==||21022020
0000016080-07978||xffuRy2mgfDjjj9nhLU2mw==||21022020
0000016080-07979||C1zToe6uQs+ykz4LWc6GnA==||21022020
0000016080-07980||qII/TIaq5stMz3RgyUMHGg==||21022020
0000016080-07981||Gypqvbik6XB7nzL0u7rzjg==||21022020
0000016080-07982||10Q3DJkHzUsaBvDYqbLBPg==||21022020
0000016080-07983||VEGiQEOXWQD19Onx/jaM6Q==||21022020
0000016080-07984||B9X773uUSyI9CViXa1++rg==||21022020
0000016080-07985||X9IiByEG60PKEXgXYpfyiw==||21022020
0000016080-07986||CT1fjZFucc5ke+Pzwe8j1w==||21022020
0000016080-07987||ob43aBPLM34wqHBy3UkWWA==||21022020
0000016080-07988||z03cwlzS+1GgvILLvRlg1w==||21022020
0000016080-07989||6U862l8HORFGcT5BWcOLkw==||21022020
0000016080-07990||ui2cGLt5+dNO576c4oc4Fw==||21022020
0000016080-07991||sOfU9HVmhRcehjzjJ+450A==||21022020
0000016080-07992||zkjioW0O5R9fhZ4tLLsR6w==||21022020
0000016080-07993||1HaFRqZ98kjtnEXmUyAFUQ==||21022020
0000016080-07994||NEyamvWUee8V89cPAxhfWg==||21022020
0000016080-07995||va9pw1VYNQjkKHecX4pJGw==||21022020
0000016080-07996||IP6+0dwfDfaj+9ht02fouA==||21022020
0000016080-07997||0Lw7fgekr+yJ8S/HYZIuxA==||21022020
0000016080-07998||2cF3PGww/ae44vqJoa6h1A==||21022020
0000016080-07999||q+rW2AFqxxPk5yITMBU2jg==||21022020
0000016080-08000||TAxxB26T+pNxL4qQ21NJ8Q==||21022020
0000016080-08001||mD8Kdw+iAADCdbUEQa+EKg==||21022020
0000016080-08002||TY60MHHSY/ss8mPpHajz8w==||21022020
0000016080-08003||yJgtRiSqsz5T7slXXoEOEw==||21022020
0000016080-08004||1svk/WUESm8HvsbrAxA92g==||21022020
0000016080-08005||je1bVDMRwod73LaC+fx0JQ==||21022020
0000016080-08006||HqIZYRwCL6kWHuNwZvnDaQ==||21022020
0000016080-08007||ktBgfXF81fgjTZqd/XDgTw==||21022020
0000016080-08008||4C07p+K4noQrIBD8Dc+s7w==||21022020
0000016080-08009||5tTWH0xS0bjWfbWcNfEkVg==||21022020
0000016080-08010||0yfJCC+gzC37BVsq7iGoMA==||21022020
0000016080-08011||cew5ksKMW6Nd/6obedaTrA==||21022020
0000016080-08012||SSW9MEOLYksZjgg3AtxT8g==||21022020
0000016080-08013||loWeoqHUok9IYRPXcf7AyQ==||21022020
0000016080-08014||EcGWiRbShMhza4kbSU26UQ==||21022020
0000016080-08015||LxujPNCHCxQP8D1V/Hrpvg==||21022020
0000016080-08016||dzjPWssJfgeyWnvNeShkLg==||21022020
0000016080-08017||kPe/UnKyhjCpn+9trHS+yQ==||21022020
0000016080-08018||uL3PJazRxv2/GU/QPGuWJw==||21022020
0000016080-08019||NClIiS3l6q/mobVKN56Mpw==||21022020
0000016080-08020||eR7Tei6qZUjbWpW+xv7GVg==||21022020
0000016080-08021||M3fjGKTBta/W3cQemnQB1Q==||21022020
0000016080-08022||zWfLv8yQ6wUSuxTLyKPdTA==||21022020
0000016080-08023||w2pYC3FS54jUV90fHL8Ueg==||21022020
0000016080-08024||4lzXIQhmiN5EqDsxwlBBzw==||21022020
0000016080-08025||dkWrxCetClmBnWwVIqtepQ==||21022020
0000016080-08026||Cg+Szc8y9wkhfn7KOCUguw==||21022020
0000016080-08027||pQW5WGsYKCGf9cDYFVrKVw==||21022020
0000016080-08028||qihOFyiaagAXnh+BFeGr1g==||21022020
0000016080-08029||Ga6mhM9e5n0ugdgir0+mLw==||21022020
0000016080-08030||sIEFBFNTRcFuwyHH5G1v3Q==||21022020
0000016080-08031||1TdK/RtfF3ksZm16Epa8ew==||21022020
0000016080-08032||mcqVH/1EfQ2nNmCxxRg+Kw==||21022020
0000016080-08033||RmqStM/lmVNMnFk5QWPleA==||21022020
0000016080-08034||VS3s8H23kReSprhxxvN02g==||21022020
0000016080-08035||8zog+2sqMtOAw5mWBj3ETQ==||21022020
0000016080-08036||yJvBHizjhah2ZSLGOm9wuw==||21022020
0000016080-08037||mHLq7u7YpcOc83lK8JCVzw==||21022020
0000016080-08038||IpSUbWVlYsitDMqOv7ffdw==||21022020
0000016080-08039||ik5MoHx2irXkw5gEYKCzZw==||21022020
0000016080-08040||JQm/HBhb3MhRqMJqUqFOLA==||21022020
0000016080-08041||MsarSUShs0PEpYrXX1mS8A==||21022020
0000016080-08042||0ONNmlCrxrm1D1EYGC5g8g==||21022020
0000016080-08043||dVJ7SNS3n790hAh9S5D2XA==||21022020
0000016080-08044||q3X3l2InNHb0OLJJxbF1eA==||21022020
0000016080-08045||zVnm/+LdIeNqcT3C14stjA==||21022020
0000016080-08046||cJT4JDj70byuVgT/NKNKPA==||21022020
0000016080-08047||HBtAthZB+3ST+ejZ79qZGA==||21022020
0000016080-08048||bRQAqnWc9puMfJ17uS0sKg==||21022020
0000016080-08049||yDPX5GMvov6hLcyf/ggrag==||21022020
0000016080-08050||qVUGff9hSoNrpJUwYaSttg==||21022020
0000016080-08051||D6PoPll/KzQTXe595ALMig==||21022020
0000016080-08052||dCIerwSJueonA/jRI11DUg==||21022020
0000016080-08053||N1RL35xzH113Ji4ZE39rLg==||21022020
0000016080-08054||/w+La9b20FmbZigAQuBaiQ==||21022020
0000016080-08055||X/TPC5NbEGJkNEYEOBawow==||21022020
0000016080-08056||/j388EzoD+bAHsohwuQ+Kw==||21022020
0000016080-08057||xdk6L1iVLkK/gHH16agKVA==||21022020
0000016080-08058||JDhNzKMISpcZ0g0VfxAV4w==||21022020
0000016080-08059||bev7wEGUAULQ3eJw5Gj9hg==||21022020
0000016080-08060||1X9CMchS4oIzOobRNdsa2Q==||21022020
0000016080-08061||ZvHy9OkiHcG3KfWAGvG+/A==||21022020
0000016080-08062||T4oR1mdqBsV1SfwC89nTnA==||21022020
0000016080-08063||q1VSYIpZMVdmdws1CPV9qQ==||21022020
0000016080-08064||eXeTd9k5jSD2mfw/eLu1hw==||21022020
0000016080-08065||gsxYOw03EPfuNQ5BS2Blng==||21022020
0000016080-08066||hXZjx/hzgS9QAlKTvUVfgA==||21022020
0000016080-08067||OOOl6aXftQnI5Na04IXGCA==||21022020
0000016080-08068||TJSqh4UZGUlpww67QmsPqA==||21022020
0000016080-08069||MES7UhVoyDVAEw5UVb0cmQ==||21022020
0000016080-08070||4btsjWp/0GiJox95d5ddaw==||21022020
0000016080-08071||uq67IrTHsny8cF/ntTSQSA==||21022020
0000016080-08072||Mu7QeWZLYL4/46yypQomug==||21022020
0000016080-08073||lqe/KK0AWlfqxnEYOb7bSg==||21022020
0000016080-08074||ZZyW1DL7NxJaeZP78rWMGw==||21022020
0000016080-08075||+Hm3bE3uxP3tLyFYyS2QVA==||21022020
0000016080-08076||LRXSz4JQkQ0w7UvfuMo/9g==||21022020
0000016080-08077||7L6+2aeUqnH/JxZ7FgfcSw==||21022020
0000016080-08078||r3F6qPSqp+uK8Jlb4E+usA==||21022020
0000016080-08079||sJrFInURSOUG+jmapT27Gw==||21022020
0000016080-08080||J0nEz1juX4F1SN/Bt8aLBw==||21022020
0000016080-08081||rHRtdkRgHKHe1KWGUcVvSQ==||21022020
0000016080-08082||SC72QB5jRXskGbAz7iyZzw==||21022020
0000016080-08083||8+NLN+Wm5nJawHmP9sZR0A==||21022020
0000016080-08084||WIv0ztntJ1GivaW2y8uT8A==||21022020
0000016080-08085||O0jsay5UlhrXFmMLtNh2Jg==||21022020
0000016080-08086||Gy84X1l649wmayyeyb/Yxg==||21022020
0000016080-08087||ZZaBZAROFGwglaP8vB8hLg==||21022020
0000016080-08088||hAzO0sVV2n5VHLTWN6CNLQ==||21022020
0000016080-08089||zUZAt3JEq7rs120C3wg3Ww==||21022020
0000016080-08090||BKZHhanlij/AHsohwuQ+Kw==||21022020
0000016080-08091||S7g9YsygsY6/gHH16agKVA==||21022020
0000016080-08092||NeAuoVJLQP44k4p4X0LH0g==||21022020
0000016080-08093||nobIvI2d3nruSs1erPAJAg==||21022020
0000016080-08094||mOvMhCPBdshGakG69ZWCtQ==||21022020
0000016080-08095||/iblRTjqa2A5NUgY0nQIMw==||21022020
0000016080-08096||MKG2mmuHqP84B5acx0W9YQ==||21022020
0000016080-08097||nFFcw1JvGAblSALsPefSAw==||21022020
0000016080-08098||e26YyENjppbVm3ZsAOaOcg==||21022020
0000016080-08099||x/rTe+dO/ymiPnce7YyF1w==||21022020
0000016080-08100||m0SkL6iOmtjNq9bQ3yvyng==||21022020
0000016080-08101||9uF4Ek/iU5V9DlJ45SBv+w==||21022020
0000016080-08102||AceBQFCeOSi4gWZfIY6GUQ==||21022020
0000016080-08103||egGA5J2yFKSZvOzFWpL8EQ==||21022020
0000016080-08104||EvHREIJLUbQ+C20R8pvZxA==||21022020

