VF||FLEX10
0000016089-01986||pMGyXWf49lMwmrWSOZ/FbA==||21022020
0000016089-01987||J+ll2PF6I9g/4YLDCSQhRw==||21022020
0000016089-01988||3VAdAkU2V3NNFqInrNoMig==||21022020
0000016089-01989||5ijoY4TPdCmVxsFgBvcJGw==||21022020
0000016089-01990||YrLCoDqroQpaDPUziwDElw==||21022020
0000016089-01991||K4ppdoOSfk3y/UzHEkFKSA==||21022020
0000016089-01992||aMSp5MFCqOmKO64U1hOcyA==||21022020
0000016089-01993||jvCgOpg/x+mac2jahbI87A==||21022020
0000016089-01994||IA1d3NLhvpn60y98SBzpRg==||21022020
0000016089-01995||+lFeCTS0RJ9OxEB6hWeGkQ==||21022020
0000016089-01996||XXIQGRnUWLKa5YwY5o1szA==||21022020
0000016089-01997||SDAQop+timAa2A1/omMIIg==||21022020
0000016089-01998||9NalC7b/HyOlCVT01czKpw==||21022020
0000016089-01999||HUrQZ21mGoVZTJ4RHyjBAw==||21022020
0000016089-00089||F5YcqMhUPqFASfHFlBzCsw==||21022020
0000016089-00090||INm8rsaWVxrkKtuxPFDQ/A==||21022020
0000016089-00091||ozGaYIuK2X5g/mRsntXX+Q==||21022020
0000016089-00092||x+/Q/RoqvQhIl6ViC3LPHA==||21022020
0000016089-00093||d+h9o2d9Ax6SuHpTLwRiHw==||21022020
0000016089-00094||6J+qC+oCC4l7mjA79QTmSw==||21022020
0000016089-00095||oj+6LLbPr+P3b+NZcjD3ow==||21022020
0000016089-00096||jBpuM8Cy1g8xUD+idjH1Ng==||21022020
0000016089-00097||HT5JdXCl5qHCub2O2ka4LA==||21022020
0000016089-00098||GgxgGbGJKLDP6hNipUnFSQ==||21022020
0000016089-00099||rgRByalAQy7M0eh4tsEGhw==||21022020
0000016089-00100||M5vZnAjPqJsdn94VeXnvtw==||21022020
0000016089-00101||8e7Uz0DRYMWsAAwHAP9iyA==||21022020
0000016089-00102||8q7grZ8KAdiKoCvT/f8gwA==||21022020
0000016089-00103||1mAI/Y6eqVRMqp6bbGaY4g==||21022020
0000016089-00104||cWstMDIWCAgUVtZnpD4aew==||21022020
0000016089-00105||Yuff8fVXQo+m9YLoFFQ7yA==||21022020
0000016089-00106||oF3mpSM9uKneNBsmB1G/ZA==||21022020
0000016089-00107||cOXYGHPp2MhstDMaikXcAA==||21022020
0000016089-00108||E9k05D8SH14uX1Ix1sjHow==||21022020
0000016089-00109||RXVG/VH/1voMFa+VKeTmpw==||21022020
0000016089-00110||3p6zVeKBLH5rLIWgnZQZVg==||21022020
0000016089-00111||NumpXdtxSDwRqvptilsLBA==||21022020
0000016089-00112||UFAOWisADFZx2McjYh9PgQ==||21022020
0000016089-00113||6/bmoY/HJGNYJO3pgWEIVA==||21022020
0000016089-00114||exm8CKM+YbV1S8ZCkKdztg==||21022020
0000016089-00115||Ix+oY9+v8Q6UHEu2f85/xw==||21022020
0000016089-00116||sB6nHXmoiEg9ZmqqkYLiRQ==||21022020
0000016089-00117||KXnvq2HqkaRolWZuBtv/QA==||21022020
0000016089-00118||SbGNNMDgYIJVc9QHDhgvBQ==||21022020
0000016089-00119||1knT5VBUiZA2KhdxxwS1KQ==||21022020
0000016089-00120||6Q4gCsQaAS3bZ0k7KdK7Fg==||21022020
0000016089-00121||2btUrq8Cht46Ikd5OPYREg==||21022020
0000016089-00122||HAue5WncEmofyNtd7CiW1Q==||21022020
0000016089-00123||11Y2oDVXNNnE2LKWC64BzQ==||21022020
0000016089-00124||b+KTFEoFaF8fkmdhYYATZQ==||21022020
0000016089-00125||uaC6Gb6Fb8xRQFvEGfxC1A==||21022020
0000016089-00126||Hf1lcyc9u6TazmhB8pGvqQ==||21022020
0000016089-00127||VwL872x3dIKAQqIH/uKI6Q==||21022020
0000016089-00128||0hCjQoHSDz+78hpC4dUlMw==||21022020
0000016089-00129||fgyvcxFw4sVXwnDfIyjagg==||21022020
0000016089-00130||qG/zGah/wPa5WrXroAzeAA==||21022020
0000016089-00131||TRmV9Ph7ZJEqsiU3GrQiPg==||21022020
0000016089-00132||dK5qStl3HppniffirMtiEQ==||21022020
0000016089-00133||CkNJ64cGX1fuPmR4lGDtzQ==||21022020
0000016089-00134||qhw7zgFH2heWEINGEfSQ7g==||21022020
0000016089-00135||ii4R1+st+oh/BFQyNpZ+FA==||21022020
0000016089-00136||AUqYpAKZ+vGuwbEpzo+BOw==||21022020
0000016089-00137||aU0hXAE/D7MqnxaBcLQGZg==||21022020
0000016089-00138||lfl02GGhJ0nDZZhvpVJpfA==||21022020
0000016089-00139||F5n/KcJqC2qR7N9IMHgqEg==||21022020
0000016089-00140||bszPBEjY3rSdBCDaJ0SuVw==||21022020
0000016089-00141||bhaGS8bAzz5eT9n8ePZ/Vw==||21022020
0000016089-00142||WxruitZeehfhyl5wJvHRHQ==||21022020
0000016089-00143||mgWZw5tyI57orEeYAgVLqw==||21022020
0000016089-00144||kcgpuAgAoYRKEfvNIXkNbA==||21022020
0000016089-00145||QU0/4wfLbGb64kNql0a81A==||21022020
0000016089-00146||M2QQqXyBbmxIRvUOIOhgmg==||21022020
0000016089-00147||jnGRAFDMCO3Pf1GLJ4RtXg==||21022020
0000016089-00148||f81XSaHFVdm9zJLPZFqspA==||21022020
0000016089-00149||1QpzXjM79xXOQivm/z/muw==||21022020
0000016089-00150||YjZa2KjF1jdRQFvEGfxC1A==||21022020
0000016089-00151||17q6waLxRKTg3ZrppP6j+w==||21022020
0000016089-00152||0HBqHoluoWmYF9mvb1iNdg==||21022020
0000016089-00153||8mJ2y3WwhwWHcT7dChqK3Q==||21022020
0000016089-00154||+/IoPpdFc3MJmoMKxX4A7A==||21022020
0000016089-00155||F4UdVRs446pCnmvbpgguYw==||21022020
0000016089-00156||Eo/2mKFo+zun3+QGsMTn+g==||21022020
0000016089-00157||WAo4aycII9wW9tDjsIXwCQ==||21022020
0000016089-00158||s6Nnfs/WDw2PenjkMkANUg==||21022020
0000016089-00159||+xCyt67xSKDL120K0DMOxA==||21022020
0000016089-00160||vbuUt3b5oOoeY2dtS6xjyA==||21022020
0000016089-00161||5O8+sjE3QVGhLcyf/ggrag==||21022020
0000016089-00162||W0aWcUNuvV1NvjxaMte3QA==||21022020
0000016089-00163||VSJkd5F1WY39I0lNIGr1ZQ==||21022020
0000016089-00164||IDjPv9NUCeOnLlMeyydVyQ==||21022020
0000016089-00165||R/cnyi1lHw1FAT+FX9LH5Q==||21022020
0000016207-01608||24WQpDa1neNt8qMBO+/djg==||04042020
0000016207-01609||YnmKAX+AVZuL+6MNOePCsA==||04042020
0000016207-01610||dV9RGo7FBjFJzssoE8Y+Lw==||04042020
0000016207-01611||8PLPG2DQ5q7rxwrsA+hq9Q==||04042020
0000016207-01612||AjdDKsomf9X3Yg0U5Y5G6A==||04042020
0000016207-01613||EOGsyOoc5rftKoWB/fVdRw==||04042020
0000016207-01614||31oWdz+S4n8G2rzjNalYMg==||04042020
0000016207-01615||ey9owtJ621NsgY/eC1NP2A==||04042020
0000016207-01616||q1QVaNJh0mr3EX3WeFOk6A==||04042020
0000016207-01617||nE/xJi2o268ngaQ9dV3U8g==||04042020
0000016207-01618||d7ilkHQU5KDnfUvW0Q9rQQ==||04042020
0000016207-01619||2XU+eedo2F2Mk0+y6wWz/A==||04042020
0000016207-01620||HX2MAM99YTm8PMbK+fLuYQ==||04042020
0000016207-01621||x7Ak0S9UD3baYh5dlX3CyA==||04042020
0000016207-01622||PUfbn0ezdMKx/ra1b+QO+A==||04042020
0000016207-01623||TWNe9pI8GFVQyLYYf64X0w==||04042020
0000016207-01624||7LtPAKt9+1sYPR14DHzzHw==||04042020
0000016207-01625||92d2QwEvHe+9WCfCRzuGZQ==||04042020
0000016207-01626||qmXEpPc0hn45f4+m9tujxg==||04042020
0000016207-01627||ez+Rpp3iVH3LgicPJawy5w==||04042020
0000016207-01628||ytoSjTqtFtPXH0HiNMFl7w==||04042020
0000016207-01629||bclwGP+YP1gLMayzr3LxcQ==||04042020
0000016207-01630||W06PrOFTVv4cSTA+LJQqWw==||04042020
0000016207-01631||2QFoDem3qcS5aUzrqa4zlg==||04042020
0000016207-01632||Pz1oRhWDv+jAegCTc3Mlfw==||04042020
0000016207-01633||yg476pnuGMy/0DMpKrlxXA==||04042020
0000016207-01634||hjIMJpUAlH+zuDpOOGQb3w==||04042020
0000016207-01635||BYTn0xEXdCQPqxE2b8gnxg==||04042020
0000016207-01636||YJ5wdy1U7iLjgUoa/Jn1GQ==||04042020
0000016207-01637||KQsWGsFLozPCvcv3b+gxqg==||04042020
0000016207-01638||YD7EpiAjAi+tFFTGVX1Mng==||04042020
0000016207-01639||GpicNZx1yNhpNQ/d1uelLw==||04042020
0000016207-01640||Tz9uUusYU7L5q1XyoL86Xg==||04042020
0000016207-01641||yn7uDZbkYlUH3AAIYacFkw==||04042020
0000016207-01642||Z7UfULB5mXOdyuD0jd6CYQ==||04042020
0000016207-01643||aIeYEXxalyYr8otaX+4QZg==||04042020
0000016207-01644||+pvly9NCdltUg1Z51E3iWA==||04042020
0000016207-01645||oPOj+leGWy4AOO5dLo0zTA==||04042020
0000016207-01646||K0TPW1bu/gmrSmRji5bseQ==||04042020
0000016207-01647||usEp4kcRZ40PMQIcAcYXBw==||04042020
0000016207-01648||q3vGIekAF9rEVWcG8a0pbg==||04042020
0000016207-01649||xApdwX10BYv/3dqHnhvfzA==||04042020
0000016207-01650||w7lr3HrB/6DuF3eB5NAHaA==||04042020
0000016207-01651||Z6Me81GucHxE9e7LuiVLMg==||04042020
0000016207-01652||s6udGOf/WhTtxg6Qrv8MAQ==||04042020
0000016207-01653||QJILjlbFdOcpREsKerGsuQ==||04042020
0000016207-01654||WZXoGIbGGDMJVIiGEFxGPQ==||04042020
0000016207-01655||gZ9jBd65/QUv1Gudas8uew==||04042020
0000016207-01656||j11Ch+tMUPUWCtpId/1UiQ==||04042020
0000016207-01657||u8XRV2/lAFjOi0kupt8inw==||04042020
0000016207-01658||cGrAeQcP7i2Llw1Q27Py9A==||04042020
0000016207-01659||n/RFe4Kd4mXIyTBpIRpTDw==||04042020
0000016207-01660||eQ0vYTR3AKj7bIbe9bjrsQ==||04042020
0000016207-01661||a1Gz9GU/7KCdKfozMfD3KQ==||04042020
0000016207-01662||aqdVBfCT1JD6wz7Z66l8pw==||04042020
0000016207-01663||/Jf+9UXKSWKWDINeEj+Q3A==||04042020
0000016207-01664||iE72q1L0u8EjX08fhprwFw==||04042020
0000016207-01665||KfXfmQ02B9xTV8E7RYmPuQ==||04042020
0000016207-01666||xLKZKbjhVAX3EC0/LujiUw==||04042020
0000016207-01667||5rdEIpcD6rg1VgesJuxPlw==||04042020
0000016207-01668||Ysc5eb6DxgFK7VpgmzZGhg==||04042020
0000016207-01669||UA+4/Mk0GFcX9zalk66r+w==||04042020
0000016207-01670||ycMoXrt0IpwO9RmrSzgHRA==||04042020
0000016207-01671||W9mlJoFe2H0cwskMj71zQQ==||04042020
0000016207-01672||YQBlq7Pab8zaPKdEn4dqsQ==||04042020
0000016207-01673||iAkzqmSEaU7LENMQOYuR+Q==||04042020
0000016207-01674||HPap6dH53sUVA6r7/+ugyA==||04042020
0000016207-01675||8JiZrUBDqot7ZAIO/iUtYA==||04042020
0000016207-01676||esH7g13a1gJrcna1+kPIWw==||04042020
0000016207-01677||X0UPMPBuJAFyuqayeuosNQ==||04042020
0000016207-01678||geP0iDoeCBnrxbCerMk9Fg==||04042020
0000016207-01679||y1BnWZXjZg01svjVMPN6tQ==||04042020
0000016207-01680||wJZMqTqChf0VN8zDvcx5Cg==||04042020
0000016207-01681||s5lj/aZFcV83REY/DUooBw==||04042020
0000016207-01682||SUVy34nTubX1T7nPtmDTyg==||04042020
0000016207-01683||9xxPoGj62Rf1TeE101pRxg==||04042020
0000016207-01684||gr8ayztqjPVl2P1i2Zns4g==||04042020
0000016207-01685||CfpLtL/E0QkMpAD0yQBgEg==||04042020
0000016207-01686||ddRwgVhvoSvG52pgQMHiwQ==||04042020
0000016207-01687||A3yrLR8/rpB9Z8G1L9w4tQ==||04042020
0000016207-01688||iLJudUXbanQPvdEtoMEgQw==||04042020
0000016207-01689||oOgw7Y1qcjTNFP6ZiQEVjg==||04042020
0000016207-01690||catukdwrYzExnAhDDdC3Bg==||04042020
0000016207-01068||w8nEn8h9sDlJ5y+WUsKpYg==||04042020
0000016207-01069||oUQTd1IpxuPdM0WpvtC0pg==||04042020
0000016207-01070||JkF4AH0S8G3qe8pbOix7Iw==||04042020
0000016207-01071||320oaLS6oFysrLxAKs76WQ==||04042020
0000016207-01072||aVPgz7Wp7rBz7838eTYfBw==||04042020
0000016207-01073||LXwNv8K7p7szv8eKma9E8w==||04042020
0000016207-01074||XE3F/dTkjGUT+FpSVgwTrw==||04042020
0000016207-01075||TSg4K79n7qpQyLYYf64X0w==||04042020
0000016207-01076||pDXqaPxvYp+Dci+ATpyEew==||04042020
0000016207-01077||j7d5xMwnQAj0bdPiZxwicA==||04042020
0000016207-01078||uphcrwiB+JiU7BHzKByjeA==||04042020
0000016207-01079||UODxu7HGShBKjeyy/n7ITg==||04042020
0000016207-01080||tm5pfzQ9FrDtHlest/k2IA==||04042020
0000016207-01081||EYnvFYBWUUVEwxj//hcbWQ==||04042020
0000016207-01082||4FVrqlw+gbXep9Z31jDeWQ==||04042020
0000016207-01083||eV7SaDfzI659ptoCmowrnQ==||04042020
0000016207-01084||SJ5LBwainoPe+qoy1sHt3A==||04042020
0000016207-01085||xNYt/PSM1GppNfwN4xe/9A==||04042020
0000016207-01086||FDdnz9BgGIC+HakTW2V6PA==||04042020
0000016207-01087||1VEWGItm2WuqeMpT6P2sVA==||04042020
0000016207-01088||/Sw7asQIe7MY7RaD76YLMA==||04042020
0000016207-01089||fDZIUKx47/lN+oymcopz8w==||04042020
0000016207-01090||8Q31ejoPmaKad5aj3C75Kg==||04042020
0000016207-01091||nRgxR5hR9xZISiiNXEa9Uw==||04042020
0000016207-01092||jpTG2Z1OigF1mzzF6/q5OQ==||04042020
0000016207-01093||gpXC5GlAyfBAB+szIZAbvw==||04042020
0000016207-01094||ov+3JSAvdY2jmbQs5UmUCg==||04042020
0000016207-01095||9r8DDzMPFsTXTeE5GzSK8A==||04042020
0000016207-01096||NsCutWJXZa7+Q6jreW4+pA==||04042020
0000016207-01097||qj2MNWmoGaxOPsrkY3Remw==||04042020
0000016207-01098||qj9+OoaxSlZ2kAXiX5GqDA==||04042020
0000016207-01099||FUP6zTwKAZhMkl0j81KOwQ==||04042020
0000016207-01100||AzK4lM2cITSnNmCxxRg+Kw==||04042020
0000016207-01101||TWoYuX80e5AyQb8+m/P7FQ==||04042020
0000016207-01102||T3EN5loYCP84toKgAdRZog==||04042020
0000016207-01103||VhDt2aNFGQBXVcE+xe7uag==||04042020
0000016207-01104||PGOvNqhqNhhGcT5BWcOLkw==||04042020
0000016207-01105||TuLWVgaEfyQF3mMjqxE0+Q==||04042020
0000016207-01106||KyamSAt1GVrL4R2efgJgJQ==||04042020
0000016207-01107||YKI/L5p7uLfSFkNhpeWtWg==||04042020
0000016207-01108||2UkXuNNkJnrkCoHyFpXrnA==||04042020
0000016207-01109||b30K0/mB6danyGFHsA9AYw==||04042020
0000016207-01110||dZKiLZ11Gr2Lde0pr6j3Bg==||04042020
0000016207-01111||k9/6QdXkYXET7nLy/Q26yQ==||04042020
0000016207-01112||+ks2Rm7LCRuFVyzK7RgHDw==||04042020
0000016207-01113||npdllBu5IJDQE39B0nL0sw==||04042020
0000016207-01114||kV6pWUv2XYMwW2BevZ9a4g==||04042020
0000016207-01115||tgisSAOUXiQAHRs9fXLqNQ==||04042020
0000016207-01116||37Ru5sj/GYgCRcQ9NAklRg==||04042020
0000016207-01117||EiYB+774OWisi7kclZKrwQ==||04042020
0000016207-01118||6hZNdBzDdTLbTpppSYCm5g==||04042020
0000016207-01119||PAWulnPSMi+IWMRx4Mpang==||04042020
0000016207-01120||pVM6XKNGo6fO9qrdYtzY8A==||04042020
0000016207-01121||oc/i84Kwyg7e+qoy1sHt3A==||04042020
0000016207-01122||N6DhKP1q1IR+4xbwSo2vMA==||04042020
0000016207-01123||J+/9OKKqMdF+tig/LmOaIA==||04042020
0000016207-01124||/Onq+dKF5s4RbWoqEPI41g==||04042020
0000016207-01125||pTSNTGJrfeBmoLgOZN/a4Q==||04042020
0000016207-01126||f3M/STbxEm0XW7iYurPhyg==||04042020
0000016207-01127||zu1rmBGf1WEyRRB9fUioqw==||04042020
0000016207-01128||+5vovuxoMxACmPjciB4X8A==||04042020
0000016207-01129||SugH92NtSnK8CsaAK4EhZg==||04042020
0000016207-01130||uXvTRUN8bll41TDwzl1tsg==||04042020
0000016207-01131||zjVX5wzPR+Apmr6wCDuVEA==||04042020
0000016207-01132||RCa3t+R99WitHZfob2Izpg==||04042020
0000016207-01133||8lYNEop1Afh8hCcoF1tuYQ==||04042020
0000016207-01134||TPvGMlqLhLO/+yfIwAiFCw==||04042020
0000016207-01135||mJs3L4GrWMrSmDXg48Gx3Q==||04042020
0000016207-01136||+SdWmWvKw5t9379Ol2MqnQ==||04042020
0000016207-01137||dka9mEyLVORe03rXnZubmA==||04042020
0000016207-01138||/laL2rjfEP3P6aU0R50NIw==||04042020
0000016207-01139||M5V49EHF33Q4R/Taf9/Wjg==||04042020
0000016207-01140||j0vmackCT30f8Y8JqPetfw==||04042020
0000016207-01141||OxynNjxRP0b8u5TBxDltEw==||04042020
0000016207-01142||twPNKYothTIOMK8oWcKQ3A==||04042020
0000016207-01143||6edjP9ofWa6ZDkI0K3weMg==||04042020
0000016207-01144||WORO2nB9tBO0XSUR0GH8ig==||04042020
0000016207-01145||CqKl40QuT9ozqIZXg0m2SA==||04042020
0000016207-01146||zFSFrDi8Uef++pIgQ9E8Bw==||04042020
0000016207-01147||sR+K2/GAYafCBZ+1cIHmlw==||04042020
0000016207-01148||lFoGcxCih4xAWIRlnjI7VQ==||04042020
0000016207-01149||Q7kLWRPA9/QctciE0waICg==||04042020
0000016207-01150||w+D+4ebGipGxQKMDDJFcIQ==||04042020
0000016207-01151||SkyXQ6QetdFxvp46OQcYaQ==||04042020
0000016207-01152||BFTrGgYOT44s8pywgVEs0w==||04042020
0000016207-01153||/U8DixmXtDMzzTw18yqzMg==||04042020
0000016207-01154||Nh7jPdOcKZZzEdqk3ZOYZQ==||04042020
0000016207-01155||iRa+Th4d8HWhZq32sgR+xw==||04042020
0000016207-01156||V+Aw60ZoojihO9XiQJ3BJg==||04042020
0000016207-00356||ARklnB4JdRVF+XQU7UU8kA==||04042020
0000016207-00357||ytUJL9EoK9pKeGCHKf964w==||04042020
0000016207-00358||1wB1MSf7H66/lYqFsB3Hwg==||04042020
0000016089-00166||whF/BG9J9Svoz+8U6/Uvzw==||21022020
0000016089-00167||C8DR1NbXQ2Vy/AIgT4nQZw==||21022020
0000016089-00168||Nz9+W4UKdmZgtBb/QvQjUA==||21022020
0000016089-00169||QUQHi1ih3y7apigIimtYOA==||21022020
0000016089-00170||/IESMtlpnJ4k6uRS49KFGA==||21022020
0000016089-00171||o1AYEAxloc2pVyCpjzYMww==||21022020
0000016089-00172||KR+hGizuJZxu5Bt5c8+uOw==||21022020
0000016089-00173||e5KHNoYbXEeB2zThuP6+9A==||21022020
0000016089-00174||zrs8pSk/gjbzrNJZXIv4TA==||21022020
0000016089-00175||KoooZWysrt1TLFK2u6tmDA==||21022020
0000016089-00176||G8Au3KVr2+fWm5D5dPyA6A==||21022020
0000016089-00177||csN/Emm5rel9Cw+b9zzAsg==||21022020
0000016089-00178||KdQFBzDyJFag4MfYxeK30w==||21022020
0000016089-00179||pd8OHV0MS+0QYwNzawldEQ==||21022020
0000016089-00180||PCBwnJscvErl9sDPx6iVGQ==||21022020
0000016089-00181||HRXrFT3lL8BSJOtkjBIf7g==||21022020
0000016089-00182||bS9UaVV+jyXPzibh6rijcA==||21022020
0000016089-00183||tl4WosKFBnxhIZO4vFFWKA==||21022020
0000016089-00184||GS2ynv8s/c20wQI+SpTfbg==||21022020
0000016089-00185||et1rc4K9r66qOPfU6S/qvg==||21022020
0000016089-00186||LEKMRoRem7RW3ibLQXG+mw==||21022020
0000016089-00187||hJzKKqkd8dPNgRujhBHGNw==||21022020
0000016089-00188||zyF8uB3td6tq7jgHyqny3w==||21022020
0000016089-00189||u9GvtBqrR5X2q9BFG6a/Dg==||21022020
0000016089-00190||jjjyS8HfkqDkiGvOrqy0AQ==||21022020
0000016089-00191||qKMj5wrcVPhsbZXaokmQ6Q==||21022020
0000016089-00192||SBREmhHFky2JVh8sQdmWjQ==||21022020
0000016089-00193||2q87bjfCc55NFTc2TNbniQ==||21022020
0000016089-00194||o44+Bq28VwK6Z8mXZP3hgg==||21022020
0000016089-00195||sU1Xz5Ngro9J5T49n1oIMg==||21022020
0000016089-00196||52bDJlaBtflUg1Z51E3iWA==||21022020
0000016089-00197||ecUfRch7yMRCJJeQyJR9fQ==||21022020
0000016089-00198||O24/M1s815QOrQ1ktrA3Ag==||21022020
0000016089-00199||9wg5dL1b2Dn5HgKFyWEseQ==||21022020

