VF||VF100
0000015897-09409||UHNgUwJs6I2/2O5kQ5qAiA==||14012021
0000015897-09410||87uLblhge49P15d4gV9jLA==||14012021
0000015897-09411||dWRH41tsXYvaIKggRWmwxw==||14012021
0000015897-09412||IWo+o3RUK93n+lqJLeA3jg==||14012021
0000015897-09413||WRlGfmPFgcEQvIpkDIPbrw==||14012021
0000015897-09414||rH2mJF4XdKFV+xFAK/mVJA==||14012021
0000015897-09415||awve5pbWsWKyw0qPezyCBw==||14012021
0000015897-09416||84Il+Cu5iZEk8TD6nV2gAA==||14012021
0000015897-09417||J4wzeCmhAwdmoLgOZN/a4Q==||14012021
0000015897-09418||xjpJ9NChd3oKiDAuZOpSyg==||14012021
0000015897-09419||bk+msRx3kujzsA60KbYIIA==||14012021
0000015897-07832||m3AONPefCTayUSr8tl3baw==||14012021
0000015897-07833||EY3h4zEdBLeYF9mvb1iNdg==||14012021
0000015897-07834||nWolzQ0g3BfeE8wPMYlvuw==||14012021
0000015897-07835||y87TQt+5HzuNuCN1xOwerw==||14012021
0000015897-07836||hMHPfbdbD95rVn2O2rHqmQ==||14012021
0000015897-07837||fW8sMjVOMo8qMm/MGxdttw==||14012021
0000015897-07838||0ejl8VfX1XGJR+R62DMQxg==||14012021
0000015897-07839||FLoLQKnsB/r5uU5D9ZHiNA==||14012021
0000015897-07840||p8LfS6FeENMbAPRX6q4CcQ==||14012021
0000015897-07841||Wxetgzv8/pTP6aU0R50NIw==||14012021
0000015897-07842||KOIsRd58qis7qC/UfdJQ0Q==||14012021
0000015897-07843||xv1IKDDSygbPk275d54w2w==||14012021
0000015897-07844||i/EEaSF1PM2DFziL1sSfxA==||14012021
0000015897-07845||0UeJKvNOaE9RqMJqUqFOLA==||14012021
0000015897-07846||8irniHnhShZR2aVrH6x3+Q==||14012021
0000015897-07847||n1rG8f59Ea1MzYgcR48exw==||14012021
0000015897-07848||r+9se/gYePUaJWM4CaC2cA==||14012021
0000015897-07849||TsDbreAcrQaPJWIyCApVEw==||14012021
0000015897-07850||WZZ3FQqO5QlGwyR/zyvBTA==||14012021

